EESchema Schematic File Version 2
LIBS:power
LIBS:device
LIBS:transistors
LIBS:conn
LIBS:linear
LIBS:regul
LIBS:74xx
LIBS:cmos4000
LIBS:adc-dac
LIBS:memory
LIBS:xilinx
LIBS:microcontrollers
LIBS:dsp
LIBS:microchip
LIBS:analog_switches
LIBS:motorola
LIBS:texas
LIBS:intel
LIBS:audio
LIBS:interface
LIBS:digital-audio
LIBS:philips
LIBS:display
LIBS:cypress
LIBS:siliconi
LIBS:opto
LIBS:atmel
LIBS:contrib
LIBS:valves
LIBS:nxp_armmcu
LIBS:lpcxpresso1769
LIBS:tft
LIBS:opa1644
LIBS:lme49726
LIBS:74hc4051
LIBS:ina128
LIBS:lcposcope-cache
EELAYER 25 0
EELAYER END
$Descr A4 11693 8268
encoding utf-8
Sheet 3 3
Title ""
Date "25 sep 2015"
Rev ""
Comp ""
Comment1 ""
Comment2 ""
Comment3 ""
Comment4 ""
$EndDescr
$Comp
L R R3
U 1 1 55FA07C4
P 1750 1300
F 0 "R3" V 1700 1100 50  0000 C CNN
F 1 "15M" V 1750 1300 50  0000 C CNN
F 2 "opendous:0805_Opendous" V 1680 1300 30  0001 C CNN
F 3 "" H 1750 1300 30  0000 C CNN
	1    1750 1300
	0    1    1    0   
$EndComp
$Comp
L R R4
U 1 1 55FA07CB
P 1750 1400
F 0 "R4" V 1700 1200 50  0000 C CNN
F 1 "220K" V 1750 1400 50  0000 C CNN
F 2 "opendous:0805_Opendous" V 1680 1400 30  0001 C CNN
F 3 "" H 1750 1400 30  0000 C CNN
	1    1750 1400
	0    1    1    0   
$EndComp
$Comp
L R R5
U 1 1 55FA07D2
P 1750 1500
F 0 "R5" V 1700 1300 50  0000 C CNN
F 1 "91K" V 1750 1500 50  0000 C CNN
F 2 "opendous:0805_Opendous" V 1680 1500 30  0001 C CNN
F 3 "" H 1750 1500 30  0000 C CNN
	1    1750 1500
	0    1    1    0   
$EndComp
$Comp
L R R6
U 1 1 55FA07D9
P 1750 1600
F 0 "R6" V 1700 1400 50  0000 C CNN
F 1 "47K" V 1750 1600 50  0000 C CNN
F 2 "opendous:0805_Opendous" V 1680 1600 30  0001 C CNN
F 3 "" H 1750 1600 30  0000 C CNN
	1    1750 1600
	0    1    1    0   
$EndComp
$Comp
L R R7
U 1 1 55FA07E0
P 1750 1700
F 0 "R7" V 1700 1500 50  0000 C CNN
F 1 "25K" V 1750 1700 50  0000 C CNN
F 2 "opendous:0805_Opendous" V 1680 1700 30  0001 C CNN
F 3 "" H 1750 1700 30  0000 C CNN
	1    1750 1700
	0    1    1    0   
$EndComp
$Comp
L R R8
U 1 1 55FA07E7
P 1750 1800
F 0 "R8" V 1700 1600 50  0000 C CNN
F 1 "10K" V 1750 1800 50  0000 C CNN
F 2 "opendous:0805_Opendous" V 1680 1800 30  0001 C CNN
F 3 "" H 1750 1800 30  0000 C CNN
	1    1750 1800
	0    1    1    0   
$EndComp
$Comp
L R R9
U 1 1 55FA07EE
P 1750 1900
F 0 "R9" V 1700 1700 50  0000 C CNN
F 1 "5K1" V 1750 1900 50  0000 C CNN
F 2 "opendous:0805_Opendous" V 1680 1900 30  0001 C CNN
F 3 "" H 1750 1900 30  0000 C CNN
	1    1750 1900
	0    1    1    0   
$EndComp
$Comp
L R R10
U 1 1 55FA07F5
P 1750 2000
F 0 "R10" V 1700 1800 50  0000 C CNN
F 1 "1K2" V 1750 2000 50  0000 C CNN
F 2 "opendous:0805_Opendous" V 1680 2000 30  0001 C CNN
F 3 "" H 1750 2000 30  0000 C CNN
	1    1750 2000
	0    1    1    0   
$EndComp
Text Label 3650 1300 0    60   ~ 0
R+
Text Label 3650 1400 0    60   ~ 0
R-
$Comp
L CD54/74HC4051 U5
U 1 1 55FA0823
P 2650 1900
F 0 "U5" H 2750 1900 60  0000 C CNN
F 1 "4051" H 2750 1700 60  0000 C CNN
F 2 "Housings_SOIC:SOIC-16_3.9x9.9mm_Pitch1.27mm" H 2650 1900 60  0001 C CNN
F 3 "" H 2650 1900 60  0000 C CNN
	1    2650 1900
	1    0    0    -1  
$EndComp
$Comp
L GNDA #PWR021
U 1 1 55FA082B
P 2650 2900
F 0 "#PWR021" H 2650 2650 50  0001 C CNN
F 1 "GNDA" H 2650 2750 50  0000 C CNN
F 2 "" H 2650 2900 60  0000 C CNN
F 3 "" H 2650 2900 60  0000 C CNN
	1    2650 2900
	1    0    0    -1  
$EndComp
Text Label 7400 2150 0    60   ~ 0
R+
Text Label 7400 2300 0    60   ~ 0
R-
$Comp
L R R22
U 1 1 55FA23B5
P 6350 1650
F 0 "R22" V 6430 1650 50  0000 C CNN
F 1 "10K" V 6350 1650 50  0000 C CNN
F 2 "opendous:0805_Opendous" V 6280 1650 30  0001 C CNN
F 3 "" H 6350 1650 30  0000 C CNN
	1    6350 1650
	0    1    1    0   
$EndComp
$Comp
L R R23
U 1 1 55FA23BC
P 6350 1850
F 0 "R23" V 6430 1850 50  0000 C CNN
F 1 "10K" V 6350 1850 50  0000 C CNN
F 2 "opendous:0805_Opendous" V 6280 1850 30  0001 C CNN
F 3 "" H 6350 1850 30  0000 C CNN
	1    6350 1850
	0    1    1    0   
$EndComp
Text Label 9100 1550 0    60   ~ 0
Vref
$Comp
L GNDA #PWR022
U 1 1 55FA23C6
P 6050 1650
F 0 "#PWR022" H 6050 1400 50  0001 C CNN
F 1 "GNDA" H 6050 1500 50  0000 C CNN
F 2 "" H 6050 1650 60  0000 C CNN
F 3 "" H 6050 1650 60  0000 C CNN
	1    6050 1650
	1    0    0    -1  
$EndComp
$Comp
L R R11
U 1 1 55FA23CC
P 5150 1600
F 0 "R11" V 5200 1400 50  0000 C CNN
F 1 "910K" V 5150 1600 50  0000 C CNN
F 2 "opendous:0805_Opendous" V 5080 1600 30  0001 C CNN
F 3 "" H 5150 1600 30  0000 C CNN
	1    5150 1600
	0    -1   -1   0   
$EndComp
$Comp
L R R12
U 1 1 55FA23D3
P 5150 1700
F 0 "R12" V 5100 1900 50  0000 C CNN
F 1 "47K" V 5150 1700 50  0000 C CNN
F 2 "opendous:0805_Opendous" V 5080 1700 30  0001 C CNN
F 3 "" H 5150 1700 30  0000 C CNN
	1    5150 1700
	0    1    1    0   
$EndComp
$Comp
L R R14
U 1 1 55FA23DA
P 5150 1900
F 0 "R14" V 5100 2100 50  0000 C CNN
F 1 "6K8" V 5150 1900 50  0000 C CNN
F 2 "opendous:0805_Opendous" V 5080 1900 30  0001 C CNN
F 3 "" H 5150 1900 30  0000 C CNN
	1    5150 1900
	0    1    1    0   
$EndComp
$Comp
L R R15
U 1 1 55FA23E1
P 5150 2000
F 0 "R15" V 5100 2200 50  0000 C CNN
F 1 "6K8" V 5150 2000 50  0000 C CNN
F 2 "opendous:0805_Opendous" V 5080 2000 30  0001 C CNN
F 3 "" H 5150 2000 30  0000 C CNN
	1    5150 2000
	0    1    1    0   
$EndComp
$Comp
L R R13
U 1 1 55FA23E8
P 5150 1800
F 0 "R13" V 5200 1600 50  0000 C CNN
F 1 "22K" V 5150 1800 50  0000 C CNN
F 2 "opendous:0805_Opendous" V 5080 1800 30  0001 C CNN
F 3 "" H 5150 1800 30  0000 C CNN
	1    5150 1800
	0    -1   -1   0   
$EndComp
$Comp
L D D1
U 1 1 55FA2404
P 5600 1550
F 0 "D1" H 5600 1650 50  0000 C CNN
F 1 "1N4148" H 5600 1450 50  0000 C CNN
F 2 "Diodes_SMD:MiniMELF_Handsoldering" H 5600 1550 60  0001 C CNN
F 3 "" H 5600 1550 60  0000 C CNN
	1    5600 1550
	0    1    1    0   
$EndComp
$Comp
L D D2
U 1 1 55FA240B
P 5600 2000
F 0 "D2" H 5600 2100 50  0000 C CNN
F 1 "1N4148" H 5600 1900 50  0000 C CNN
F 2 "Diodes_SMD:MiniMELF_Handsoldering" H 5600 2000 60  0001 C CNN
F 3 "" H 5600 2000 60  0000 C CNN
	1    5600 2000
	0    1    1    0   
$EndComp
$Comp
L R R16
U 1 1 55FA2412
P 5150 2100
F 0 "R16" V 5200 1900 50  0000 C CNN
F 1 "6K8" V 5150 2100 50  0000 C CNN
F 2 "opendous:0805_Opendous" V 5080 2100 30  0001 C CNN
F 3 "" H 5150 2100 30  0000 C CNN
	1    5150 2100
	0    -1   -1   0   
$EndComp
$Comp
L R R17
U 1 1 55FA2419
P 5150 2200
F 0 "R17" V 5100 2400 50  0000 C CNN
F 1 "390" V 5150 2200 50  0000 C CNN
F 2 "opendous:0805_Opendous" V 5080 2200 30  0001 C CNN
F 3 "" H 5150 2200 30  0000 C CNN
	1    5150 2200
	0    1    1    0   
$EndComp
$Comp
L R R18
U 1 1 55FA2420
P 8250 1750
F 0 "R18" V 8350 1750 50  0000 C CNN
F 1 "680" V 8250 1750 50  0000 C CNN
F 2 "opendous:0805_Opendous" V 8180 1750 30  0001 C CNN
F 3 "" H 8250 1750 30  0000 C CNN
	1    8250 1750
	0    1    1    0   
$EndComp
$Comp
L R R19
U 1 1 55FA2427
P 8950 1750
F 0 "R19" V 9030 1750 50  0000 C CNN
F 1 "1K8" V 8950 1750 50  0000 C CNN
F 2 "opendous:0805_Opendous" V 8880 1750 30  0001 C CNN
F 3 "" H 8950 1750 30  0000 C CNN
	1    8950 1750
	0    -1   -1   0   
$EndComp
$Comp
L GNDA #PWR023
U 1 1 55FA242E
P 7450 1400
F 0 "#PWR023" H 7450 1150 50  0001 C CNN
F 1 "GNDA" H 7600 1350 50  0000 C CNN
F 2 "" H 7450 1400 60  0000 C CNN
F 3 "" H 7450 1400 60  0000 C CNN
	1    7450 1400
	1    0    0    -1  
$EndComp
$Comp
L C C7
U 1 1 55FA2434
P 8500 1950
F 0 "C7" H 8525 2050 50  0000 L CNN
F 1 "10nF" H 8525 1850 50  0000 L CNN
F 2 "opendous:0805_Opendous" H 8538 1800 30  0001 C CNN
F 3 "" H 8500 1950 60  0000 C CNN
	1    8500 1950
	1    0    0    -1  
$EndComp
$Comp
L C C8
U 1 1 55FA243B
P 9700 2300
F 0 "C8" V 9600 2400 50  0000 L CNN
F 1 "1nF" V 9600 2100 50  0000 L CNN
F 2 "opendous:0805_Opendous" H 9738 2150 30  0001 C CNN
F 3 "" H 9700 2300 60  0000 C CNN
	1    9700 2300
	0    1    1    0   
$EndComp
$Comp
L R R20
U 1 1 55FA2442
P 9650 2500
F 0 "R20" V 9730 2500 50  0000 C CNN
F 1 "1K8" V 9650 2500 50  0000 C CNN
F 2 "opendous:0805_Opendous" V 9580 2500 30  0001 C CNN
F 3 "" H 9650 2500 30  0000 C CNN
	1    9650 2500
	0    1    1    0   
$EndComp
$Comp
L GNDA #PWR024
U 1 1 55FA2449
P 8500 2150
F 0 "#PWR024" H 8500 1900 50  0001 C CNN
F 1 "GNDA" H 8500 2000 50  0000 C CNN
F 2 "" H 8500 2150 60  0000 C CNN
F 3 "" H 8500 2150 60  0000 C CNN
	1    8500 2150
	1    0    0    -1  
$EndComp
$Comp
L BNC P3
U 1 1 55FA244F
P 4500 1600
F 0 "P3" H 4510 1720 50  0000 C CNN
F 1 "BNC" V 4610 1540 50  0000 C CNN
F 2 "Sockets_BNC:BNC_Socket_TYCO-AMP_LargePads" H 4500 1600 60  0001 C CNN
F 3 "" H 4500 1600 60  0000 C CNN
	1    4500 1600
	-1   0    0    -1  
$EndComp
$Comp
L INA128 U7
U 1 1 55FA24A5
P 7000 1750
F 0 "U7" H 7300 2000 70  0000 C CNN
F 1 "INA128" H 7400 1500 70  0000 C CNN
F 2 "opendous:DIP-8__300_for_Adapters" H 7000 1750 60  0001 C CNN
F 3 "" H 7000 1750 60  0000 C CNN
	1    7000 1750
	1    0    0    -1  
$EndComp
Text GLabel 3050 950  2    60   Input ~ 0
+5A
Text GLabel 3850 2400 2    60   Input ~ 0
-5A
$Comp
L GNDA #PWR025
U 1 1 55FA2456
P 4500 1850
F 0 "#PWR025" H 4500 1600 50  0001 C CNN
F 1 "GNDA" H 4500 1700 50  0000 C CNN
F 2 "" H 4500 1850 60  0000 C CNN
F 3 "" H 4500 1850 60  0000 C CNN
	1    4500 1850
	1    0    0    -1  
$EndComp
$Comp
L GNDA #PWR026
U 1 1 55FA23EF
P 5400 2200
F 0 "#PWR026" H 5400 1950 50  0001 C CNN
F 1 "GNDA" H 5400 2050 50  0000 C CNN
F 2 "" H 5400 2200 60  0000 C CNN
F 3 "" H 5400 2200 60  0000 C CNN
	1    5400 2200
	1    0    0    -1  
$EndComp
Text GLabel 6950 2450 2    60   Input ~ 0
-5A
Text GLabel 6950 1100 2    60   Input ~ 0
+5A
Text HLabel 1750 2300 0    60   Input ~ 0
A
Text HLabel 1750 2400 0    60   Input ~ 0
B
Text HLabel 1750 2500 0    60   Input ~ 0
C
Text HLabel 1750 2200 0    60   Input ~ 0
E
Text GLabel 4650 2800 1    60   Input ~ 0
+5A
$Comp
L GNDA #PWR027
U 1 1 55FBFCCA
P 4650 3750
F 0 "#PWR027" H 4650 3500 50  0001 C CNN
F 1 "GNDA" H 4650 3600 50  0000 C CNN
F 2 "" H 4650 3750 60  0000 C CNN
F 3 "" H 4650 3750 60  0000 C CNN
	1    4650 3750
	1    0    0    -1  
$EndComp
$Comp
L POT RV1
U 1 1 55FBFD35
P 4650 3300
F 0 "RV1" H 4650 3200 50  0000 C CNN
F 1 "10K" H 4650 3300 50  0000 C CNN
F 2 "Potentiometers:Potentiometer_Bourns_3296W_3-8Zoll_Inline_ScrewUp" H 4650 3300 60  0001 C CNN
F 3 "" H 4650 3300 60  0000 C CNN
	1    4650 3300
	0    1    1    0   
$EndComp
Text Label 5400 3300 0    60   ~ 0
Vref
$Comp
L D D3
U 1 1 56087BDB
P 9100 3250
F 0 "D3" H 9100 3350 50  0000 C CNN
F 1 "1N4148" H 9100 3150 50  0000 C CNN
F 2 "Diodes_SMD:MiniMELF_Handsoldering" H 9100 3250 60  0001 C CNN
F 3 "" H 9100 3250 60  0000 C CNN
	1    9100 3250
	0    1    1    0   
$EndComp
$Comp
L D D4
U 1 1 56087C7B
P 9100 3850
F 0 "D4" H 9100 3950 50  0000 C CNN
F 1 "1N4148" H 9100 3750 50  0000 C CNN
F 2 "Diodes_SMD:MiniMELF_Handsoldering" H 9100 3850 60  0001 C CNN
F 3 "" H 9100 3850 60  0000 C CNN
	1    9100 3850
	0    1    1    0   
$EndComp
Text HLabel 9300 3550 2    60   Input ~ 0
Analog
Text Label 10550 1650 0    60   ~ 0
An_out
Text Label 8300 3550 2    60   ~ 0
An_out
$Comp
L R R21
U 1 1 56089462
P 8700 3550
F 0 "R21" V 8800 3550 50  0000 C CNN
F 1 "10K" V 8700 3550 50  0000 C CNN
F 2 "opendous:0805_Opendous" V 8630 3550 30  0001 C CNN
F 3 "" H 8700 3550 30  0000 C CNN
	1    8700 3550
	0    1    1    0   
$EndComp
Text GLabel 9100 2950 1    60   Input ~ 0
+3,3
$Comp
L GND #PWR028
U 1 1 5609B771
P 9100 4100
F 0 "#PWR028" H 9100 3850 50  0001 C CNN
F 1 "GND" H 9100 3950 50  0000 C CNN
F 2 "" H 9100 4100 60  0000 C CNN
F 3 "" H 9100 4100 60  0000 C CNN
	1    9100 4100
	1    0    0    -1  
$EndComp
$Comp
L LME49726 U6
U 2 1 55FA23FC
P 9800 1650
F 0 "U6" H 9750 1850 60  0000 L CNN
F 1 "LME49726" H 9750 1400 60  0000 L CNN
F 2 "DGN:DGN8" H 9800 1650 60  0001 C CNN
F 3 "" H 9800 1650 60  0000 C CNN
	2    9800 1650
	1    0    0    -1  
$EndComp
Text GLabel 10000 2050 2    60   Input ~ 0
-5A
Text GLabel 9850 1200 2    60   Input ~ 0
+5A
Text Notes 4900 3100 0    60   ~ 0
Vref=452mV para que con G=1+2.65=3.65 da 1.65v
Wire Wire Line
	10400 2500 9800 2500
Wire Wire Line
	9100 2950 9100 3100
Wire Wire Line
	9100 4100 9100 4000
Connection ~ 9100 3550
Wire Wire Line
	9100 3400 9100 3700
Wire Wire Line
	8850 3550 9300 3550
Wire Wire Line
	8300 3550 8550 3550
Wire Wire Line
	9100 1750 9300 1750
Wire Wire Line
	8400 1750 8800 1750
Wire Wire Line
	9300 1550 9100 1550
Wire Wire Line
	4800 3300 5400 3300
Wire Wire Line
	4650 2800 4650 3050
Wire Wire Line
	4500 1850 4500 1800
Connection ~ 5450 1850
Wire Wire Line
	8500 2150 8500 2100
Connection ~ 10400 2300
Connection ~ 10400 1650
Wire Wire Line
	10400 1650 10400 2500
Wire Wire Line
	9850 2300 10400 2300
Connection ~ 6900 1300
Wire Wire Line
	5300 1800 5450 1800
Wire Wire Line
	5300 2200 5400 2200
Wire Wire Line
	4900 2200 5000 2200
Wire Wire Line
	4900 2100 4900 2200
Wire Wire Line
	5000 2100 4900 2100
Wire Wire Line
	5450 2100 5300 2100
Wire Wire Line
	5450 2000 5450 2100
Wire Wire Line
	5300 2000 5450 2000
Wire Wire Line
	5600 2150 5600 2300
Wire Wire Line
	6050 1650 6200 1650
Wire Wire Line
	4900 1900 5000 1900
Wire Wire Line
	4900 2000 4900 1900
Wire Wire Line
	5000 2000 4900 2000
Wire Wire Line
	5450 1900 5300 1900
Wire Wire Line
	5450 1800 5450 1900
Wire Wire Line
	4900 1800 5000 1800
Wire Wire Line
	4900 1700 4900 1800
Wire Wire Line
	5000 1700 4900 1700
Wire Wire Line
	5450 1700 5300 1700
Wire Wire Line
	5450 1600 5450 1700
Wire Wire Line
	5300 1600 5450 1600
Wire Wire Line
	4650 1600 5000 1600
Wire Wire Line
	7100 1400 7450 1400
Wire Wire Line
	7100 1450 7100 1400
Wire Wire Line
	6900 2450 6950 2450
Wire Wire Line
	6900 1100 6950 1100
Wire Wire Line
	6500 1850 6600 1850
Wire Wire Line
	6500 1650 6600 1650
Wire Wire Line
	6900 1100 6900 1450
Wire Wire Line
	6900 2050 6900 2450
Wire Wire Line
	7000 2300 7400 2300
Wire Wire Line
	7000 2050 7000 2300
Wire Wire Line
	7100 2150 7400 2150
Wire Wire Line
	7100 2050 7100 2150
Wire Wire Line
	1750 2200 1950 2200
Wire Wire Line
	2650 2850 2650 2900
Wire Wire Line
	2650 950  3050 950 
Wire Wire Line
	3350 2400 3850 2400
Wire Wire Line
	1950 2500 1750 2500
Wire Wire Line
	1950 2400 1750 2400
Wire Wire Line
	1950 2300 1750 2300
Connection ~ 1400 2000
Wire Wire Line
	3500 1400 3650 1400
Wire Wire Line
	3500 3200 3500 1400
Wire Wire Line
	1400 3200 3500 3200
Wire Wire Line
	3350 1300 3650 1300
Connection ~ 1400 1400
Wire Wire Line
	1600 1400 1400 1400
Connection ~ 1400 1500
Wire Wire Line
	1400 1500 1600 1500
Connection ~ 1400 1600
Wire Wire Line
	1400 1600 1600 1600
Connection ~ 1400 1700
Wire Wire Line
	1400 1700 1600 1700
Connection ~ 1400 1800
Wire Wire Line
	1400 1800 1600 1800
Connection ~ 1400 1900
Wire Wire Line
	1400 1900 1600 1900
Wire Wire Line
	1400 2000 1600 2000
Wire Wire Line
	1400 1300 1400 3200
Wire Wire Line
	1600 1300 1400 1300
Wire Wire Line
	1900 2000 1950 2000
Wire Wire Line
	1900 1900 1950 1900
Wire Wire Line
	1900 1800 1950 1800
Wire Wire Line
	1900 1700 1950 1700
Wire Wire Line
	1900 1600 1950 1600
Wire Wire Line
	1900 1500 1950 1500
Wire Wire Line
	1900 1400 1950 1400
Wire Wire Line
	1900 1300 1950 1300
Wire Wire Line
	10300 1650 10550 1650
Wire Wire Line
	5450 1850 6200 1850
Connection ~ 5600 1850
Wire Wire Line
	5600 1300 5600 1400
Wire Wire Line
	7400 1750 8100 1750
Wire Wire Line
	8500 1750 8500 1800
Connection ~ 8500 1750
Wire Wire Line
	9300 2300 9550 2300
Wire Wire Line
	9300 1750 9300 2300
Wire Wire Line
	9500 2500 8750 2500
Wire Wire Line
	8750 2500 8750 1750
Connection ~ 8750 1750
Wire Wire Line
	9700 2050 10000 2050
Wire Wire Line
	9700 1250 9700 1200
Wire Wire Line
	9700 1200 9850 1200
Wire Wire Line
	5600 1300 6900 1300
Wire Wire Line
	5600 2300 6900 2300
Connection ~ 6900 2300
Wire Wire Line
	5600 1700 5600 1850
Wire Wire Line
	4650 3550 4650 3750
Connection ~ 5200 3300
Connection ~ 4950 3300
Connection ~ 4650 3700
Wire Wire Line
	5200 3700 5200 3650
Connection ~ 4950 3700
Wire Wire Line
	4950 3650 4950 3700
Wire Wire Line
	4650 3700 5200 3700
Wire Wire Line
	4950 3350 4950 3300
Wire Wire Line
	5200 3350 5200 3300
$Comp
L CP C10
U 1 1 5615B390
P 4950 3500
F 0 "C10" H 4975 3600 50  0000 L CNN
F 1 "10u" H 4975 3400 50  0000 L CNN
F 2 "" H 4988 3350 30  0000 C CNN
F 3 "" H 4950 3500 60  0000 C CNN
	1    4950 3500
	1    0    0    -1  
$EndComp
$Comp
L C C11
U 1 1 5615DF1F
P 5200 3500
F 0 "C11" H 5050 3400 50  0000 L CNN
F 1 ".1" H 5100 3600 50  0000 L CNN
F 2 "opendous:0805_Opendous" H 5238 3350 30  0001 C CNN
F 3 "" H 5200 3500 60  0000 C CNN
	1    5200 3500
	-1   0    0    1   
$EndComp
$EndSCHEMATC
