EESchema Schematic File Version 2
LIBS:power
LIBS:device
LIBS:transistors
LIBS:conn
LIBS:linear
LIBS:regul
LIBS:74xx
LIBS:cmos4000
LIBS:adc-dac
LIBS:memory
LIBS:xilinx
LIBS:microcontrollers
LIBS:dsp
LIBS:microchip
LIBS:analog_switches
LIBS:motorola
LIBS:texas
LIBS:intel
LIBS:audio
LIBS:interface
LIBS:digital-audio
LIBS:philips
LIBS:display
LIBS:cypress
LIBS:siliconi
LIBS:opto
LIBS:atmel
LIBS:contrib
LIBS:valves
LIBS:nxp_armmcu
LIBS:lpcxpresso1769
LIBS:tft
LIBS:opa1644
LIBS:lme49726
LIBS:74hc4051
LIBS:ina128
LIBS:lcposcope-cache
EELAYER 25 0
EELAYER END
$Descr A4 11693 8268
encoding utf-8
Sheet 2 3
Title ""
Date "30 sep 2015"
Rev ""
Comp ""
Comment1 ""
Comment2 ""
Comment3 ""
Comment4 ""
$EndDescr
$Comp
L LD1117S33CTR U3
U 1 1 55F9E140
P 1800 3250
F 0 "U3" H 1800 3550 40  0000 C CNN
F 1 "LD1117S33CTR" H 1800 3500 40  0000 C CNN
F 2 "opendous:SOT223_Opendous" H 1800 3450 40  0000 C CNN
F 3 "" H 1800 3250 60  0000 C CNN
	1    1800 3250
	1    0    0    -1  
$EndComp
$Comp
L GND #PWR06
U 1 1 55F9E148
P 1800 3650
F 0 "#PWR06" H 1800 3400 50  0001 C CNN
F 1 "GND" H 1800 3500 50  0000 C CNN
F 2 "" H 1800 3650 60  0000 C CNN
F 3 "" H 1800 3650 60  0000 C CNN
	1    1800 3650
	1    0    0    -1  
$EndComp
$Comp
L VDD #PWR07
U 1 1 55F9E14F
P 1400 4200
F 0 "#PWR07" H 1400 4050 50  0001 C CNN
F 1 "VDD" H 1400 4350 50  0000 C CNN
F 2 "" H 1400 4200 60  0000 C CNN
F 3 "" H 1400 4200 60  0000 C CNN
	1    1400 4200
	1    0    0    -1  
$EndComp
$Comp
L GND #PWR08
U 1 1 55F9E155
P 1400 4500
F 0 "#PWR08" H 1400 4250 50  0001 C CNN
F 1 "GND" H 1400 4350 50  0000 C CNN
F 2 "" H 1400 4500 60  0000 C CNN
F 3 "" H 1400 4500 60  0000 C CNN
	1    1400 4500
	1    0    0    -1  
$EndComp
$Comp
L VSS #PWR09
U 1 1 55F9E15B
P 1900 4500
F 0 "#PWR09" H 1900 4350 50  0001 C CNN
F 1 "VSS" H 1900 4650 50  0000 C CNN
F 2 "" H 1900 4500 60  0000 C CNN
F 3 "" H 1900 4500 60  0000 C CNN
	1    1900 4500
	-1   0    0    1   
$EndComp
Text Label 1200 3200 2    60   ~ 0
EXT_POWER
$Comp
L CP C2
U 1 1 55F9E162
P 1300 3400
F 0 "C2" H 1325 3500 50  0000 L CNN
F 1 "10u" H 1325 3300 50  0000 L CNN
F 2 "Capacitors_SMD:c_elec_5x5.3" H 1338 3250 30  0001 C CNN
F 3 "" H 1300 3400 60  0000 C CNN
	1    1300 3400
	1    0    0    -1  
$EndComp
$Comp
L CP C3
U 1 1 55F9E169
P 2250 3400
F 0 "C3" H 2275 3500 50  0000 L CNN
F 1 "100u" H 2275 3300 50  0000 L CNN
F 2 "Capacitors_SMD:c_elec_5x5.3" H 2288 3250 30  0001 C CNN
F 3 "" H 2250 3400 60  0000 C CNN
	1    2250 3400
	1    0    0    -1  
$EndComp
$Comp
L C C1
U 1 1 55F9E170
P 1050 3400
F 0 "C1" H 1075 3500 50  0000 L CNN
F 1 ".1u" H 1075 3300 50  0000 L CNN
F 2 "opendous:0805_Opendous" H 1088 3250 30  0001 C CNN
F 3 "" H 1050 3400 60  0000 C CNN
	1    1050 3400
	1    0    0    -1  
$EndComp
$Comp
L C C4
U 1 1 55F9E177
P 2500 3400
F 0 "C4" H 2525 3500 50  0000 L CNN
F 1 ".1u" H 2525 3300 50  0000 L CNN
F 2 "opendous:0805_Opendous" H 2538 3250 30  0001 C CNN
F 3 "" H 2500 3400 60  0000 C CNN
	1    2500 3400
	1    0    0    -1  
$EndComp
$Comp
L GND #PWR010
U 1 1 55F9E17E
P 1350 2650
F 0 "#PWR010" H 1350 2400 50  0001 C CNN
F 1 "GND" H 1350 2500 50  0000 C CNN
F 2 "" H 1350 2650 60  0000 C CNN
F 3 "" H 1350 2650 60  0000 C CNN
	1    1350 2650
	1    0    0    -1  
$EndComp
$Comp
L GNDA #PWR011
U 1 1 55F9E184
P 2150 2650
F 0 "#PWR011" H 2150 2400 50  0001 C CNN
F 1 "GNDA" H 2150 2500 50  0000 C CNN
F 2 "" H 2150 2650 60  0000 C CNN
F 3 "" H 2150 2650 60  0000 C CNN
	1    2150 2650
	1    0    0    -1  
$EndComp
$Comp
L FILTER FB2
U 1 1 55F9E18A
P 1750 2550
F 0 "FB2" H 1750 2700 50  0000 C CNN
F 1 "FILTER" H 1750 2450 50  0000 C CNN
F 2 "opendous:0805_Opendous" H 1750 2550 60  0001 C CNN
F 3 "" H 1750 2550 60  0000 C CNN
	1    1750 2550
	1    0    0    -1  
$EndComp
$Comp
L BARREL_JACK CON1
U 1 1 55F9E191
P 1300 1250
F 0 "CON1" H 1300 1500 60  0000 C CNN
F 1 "EXT_POWER" H 1300 1050 60  0000 C CNN
F 2 "Connect:JACK_ALIM" H 1300 1250 60  0001 C CNN
F 3 "" H 1300 1250 60  0000 C CNN
	1    1300 1250
	1    0    0    -1  
$EndComp
Text Label 2350 1150 0    60   ~ 0
EXT_POWER
$Comp
L GND #PWR012
U 1 1 55F9E1BA
P 2350 1350
F 0 "#PWR012" H 2350 1100 50  0001 C CNN
F 1 "GND" H 2350 1200 50  0000 C CNN
F 2 "" H 2350 1350 60  0000 C CNN
F 3 "" H 2350 1350 60  0000 C CNN
	1    2350 1350
	1    0    0    -1  
$EndComp
$Comp
L FILTER FB1
U 1 1 55F9E1C0
P 1700 1950
F 0 "FB1" H 1700 2100 50  0000 C CNN
F 1 "FILTER" H 1700 1850 50  0000 C CNN
F 2 "opendous:0805_Opendous" H 1700 1950 60  0001 C CNN
F 3 "" H 1700 1950 60  0000 C CNN
	1    1700 1950
	1    0    0    -1  
$EndComp
$Comp
L PWR_FLAG #FLG013
U 1 1 55F9E1CB
P 2150 1900
F 0 "#FLG013" H 2150 1995 50  0001 C CNN
F 1 "PWR_FLAG" H 2150 2100 50  0000 C CNN
F 2 "" H 2150 1900 60  0000 C CNN
F 3 "" H 2150 1900 60  0000 C CNN
	1    2150 1900
	1    0    0    -1  
$EndComp
$Comp
L PWR_FLAG #FLG014
U 1 1 55F9E1D2
P 1900 1100
F 0 "#FLG014" H 1900 1195 50  0001 C CNN
F 1 "PWR_FLAG" H 1850 1300 50  0000 C CNN
F 2 "" H 1900 1100 60  0000 C CNN
F 3 "" H 1900 1100 60  0000 C CNN
	1    1900 1100
	1    0    0    -1  
$EndComp
$Comp
L PWR_FLAG #FLG015
U 1 1 55F9E1DA
P 2150 2500
F 0 "#FLG015" H 2150 2595 50  0001 C CNN
F 1 "PWR_FLAG" H 2350 2500 50  0000 C CNN
F 2 "" H 2150 2500 60  0000 C CNN
F 3 "" H 2150 2500 60  0000 C CNN
	1    2150 2500
	1    0    0    -1  
$EndComp
$Comp
L PWR_FLAG #FLG016
U 1 1 55F9E1E1
P 1350 2500
F 0 "#FLG016" H 1350 2595 50  0001 C CNN
F 1 "PWR_FLAG" H 1050 2600 50  0000 C CNN
F 2 "" H 1350 2500 60  0000 C CNN
F 3 "" H 1350 2500 60  0000 C CNN
	1    1350 2500
	1    0    0    -1  
$EndComp
$Comp
L ICL7660 U4
U 1 1 55F9FC9B
P 4450 1750
F 0 "U4" H 4650 2150 70  0000 L CNN
F 1 "ICL7660" H 4500 1300 70  0000 L CNN
F 2 "Housings_SOIC:SOIC-8_3.9x4.9mm_Pitch1.27mm" H 4450 1750 60  0001 C CNN
F 3 "" H 4450 1750 60  0000 C CNN
	1    4450 1750
	1    0    0    -1  
$EndComp
NoConn ~ 3600 1900
$Comp
L CP C5
U 1 1 55F9FCA4
P 3350 1600
F 0 "C5" H 3375 1700 50  0000 L CNN
F 1 "10uF" H 3375 1500 50  0000 L CNN
F 2 "Capacitors_SMD:c_elec_5x5.3" H 3388 1450 30  0001 C CNN
F 3 "" H 3350 1600 60  0000 C CNN
	1    3350 1600
	1    0    0    -1  
$EndComp
$Comp
L GND #PWR017
U 1 1 55F9FCAC
P 5350 2500
F 0 "#PWR017" H 5350 2250 50  0001 C CNN
F 1 "GND" H 5350 2350 50  0000 C CNN
F 2 "" H 5350 2500 60  0000 C CNN
F 3 "" H 5350 2500 60  0000 C CNN
	1    5350 2500
	1    0    0    -1  
$EndComp
$Comp
L FILTER FB3
U 1 1 55F9FCC1
P 6100 1600
F 0 "FB3" H 6100 1750 50  0000 C CNN
F 1 "FILTER" H 6100 1500 50  0000 C CNN
F 2 "opendous:0805_Opendous" H 6100 1600 60  0001 C CNN
F 3 "" H 6100 1600 60  0000 C CNN
	1    6100 1600
	1    0    0    -1  
$EndComp
$Comp
L PWR_FLAG #FLG018
U 1 1 55F9FCC9
P 6500 1550
F 0 "#FLG018" H 6500 1645 50  0001 C CNN
F 1 "PWR_FLAG" H 6500 1750 50  0000 C CNN
F 2 "" H 6500 1550 60  0000 C CNN
F 3 "" H 6500 1550 60  0000 C CNN
	1    6500 1550
	1    0    0    -1  
$EndComp
Text GLabel 2600 3200 2    60   Input ~ 0
+3,3
Text GLabel 2850 1950 2    60   Input ~ 0
+5A
Text GLabel 1250 1950 0    60   Input ~ 0
+5
Text GLabel 1900 4250 2    60   Input ~ 0
+3,3
Text GLabel 7100 1600 2    60   Input ~ 0
-5A
Text GLabel 4750 1100 2    60   Input ~ 0
+5
Text GLabel 2450 900  2    60   Input ~ 0
+5
$Comp
L CP C6
U 1 1 5604B24F
P 5500 1850
F 0 "C6" H 5525 1950 50  0000 L CNN
F 1 "10uF" H 5525 1750 50  0000 L CNN
F 2 "Capacitors_SMD:c_elec_5x5.3" H 5538 1700 30  0001 C CNN
F 3 "" H 5500 1850 60  0000 C CNN
	1    5500 1850
	1    0    0    -1  
$EndComp
$Comp
L C C9
U 1 1 5615ACAC
P 5700 1850
F 0 "C9" H 5725 1950 50  0000 L CNN
F 1 ".1u" H 5725 1750 50  0000 L CNN
F 2 "opendous:0805_Opendous" H 5738 1700 30  0001 C CNN
F 3 "" H 5700 1850 60  0000 C CNN
	1    5700 1850
	1    0    0    -1  
$EndComp
$Comp
L C C13
U 1 1 5615F6B8
P 2750 2200
F 0 "C13" H 2775 2300 50  0000 L CNN
F 1 ".1u" H 2775 2100 50  0000 L CNN
F 2 "opendous:0805_Opendous" H 2788 2050 30  0001 C CNN
F 3 "" H 2750 2200 60  0000 C CNN
	1    2750 2200
	1    0    0    -1  
$EndComp
$Comp
L CP C12
U 1 1 5615F7A6
P 2450 2200
F 0 "C12" H 2475 2300 50  0000 L CNN
F 1 "10uF" H 2475 2100 50  0000 L CNN
F 2 "Capacitors_SMD:c_elec_5x5.3" H 2488 2050 30  0001 C CNN
F 3 "" H 2450 2200 60  0000 C CNN
	1    2450 2200
	1    0    0    -1  
$EndComp
Wire Wire Line
	1800 3500 1800 3650
Wire Wire Line
	2200 3200 2600 3200
Wire Wire Line
	950  3200 1400 3200
Wire Wire Line
	1400 4400 1900 4400
Wire Wire Line
	1400 4200 1400 4250
Wire Wire Line
	1400 4250 1900 4250
Wire Wire Line
	1400 4400 1400 4500
Wire Wire Line
	1900 4400 1900 4500
Wire Wire Line
	1050 3250 1050 3200
Connection ~ 1050 3200
Wire Wire Line
	1300 3250 1300 3200
Connection ~ 1300 3200
Wire Wire Line
	1050 3550 1050 3600
Wire Wire Line
	1050 3600 2500 3600
Connection ~ 1800 3600
Wire Wire Line
	1300 3550 1300 3600
Connection ~ 1300 3600
Wire Wire Line
	2500 3600 2500 3550
Wire Wire Line
	2250 3550 2250 3600
Connection ~ 2250 3600
Wire Wire Line
	2250 3250 2250 3200
Connection ~ 2250 3200
Wire Wire Line
	2500 3250 2500 3200
Connection ~ 2500 3200
Wire Wire Line
	1400 2550 1350 2550
Wire Wire Line
	1350 2500 1350 2650
Wire Wire Line
	2100 2550 2150 2550
Wire Wire Line
	2150 2500 2150 2650
Wire Wire Line
	1600 1150 2350 1150
Wire Wire Line
	1600 1250 1800 1250
Wire Wire Line
	1800 1250 1800 1350
Wire Wire Line
	1600 1350 2350 1350
Connection ~ 1800 1350
Wire Wire Line
	1350 1950 1250 1950
Wire Wire Line
	2050 1950 2850 1950
Wire Wire Line
	2150 1950 2150 1900
Wire Wire Line
	1900 1100 1900 1150
Connection ~ 1900 1150
Connection ~ 2150 2550
Connection ~ 1350 2550
Wire Wire Line
	5300 1900 5350 1900
Wire Wire Line
	5350 1900 5350 2500
Wire Wire Line
	4400 2400 4400 2450
Wire Wire Line
	4400 2450 5700 2450
Connection ~ 5350 2450
Wire Wire Line
	3350 1400 3550 1400
Wire Wire Line
	3550 1400 3550 1500
Wire Wire Line
	3550 1500 3600 1500
Wire Wire Line
	3350 1750 3350 1850
Wire Wire Line
	3350 1850 3550 1850
Wire Wire Line
	3550 1850 3550 1700
Wire Wire Line
	3550 1700 3600 1700
Wire Wire Line
	3350 1450 3350 1400
Wire Wire Line
	4400 1100 4750 1100
Wire Wire Line
	6450 1600 7100 1600
Wire Wire Line
	6500 1550 6500 1600
Connection ~ 6500 1600
Connection ~ 2150 1950
Wire Wire Line
	2450 900  2200 900 
Wire Wire Line
	2200 900  2200 1150
Connection ~ 2200 1150
Wire Wire Line
	5300 1600 5750 1600
Wire Wire Line
	5500 1700 5500 1600
Connection ~ 5500 1600
Wire Wire Line
	5500 2450 5500 2000
Wire Wire Line
	5700 1700 5700 1600
Connection ~ 5700 1600
Wire Wire Line
	5700 2450 5700 2000
Connection ~ 5500 2450
Wire Wire Line
	2450 2050 2450 1950
Connection ~ 2450 1950
Wire Wire Line
	2750 2050 2750 1950
Connection ~ 2750 1950
$Comp
L C C15
U 1 1 5615FA97
P 7000 1850
F 0 "C15" H 7025 1950 50  0000 L CNN
F 1 ".1u" H 7025 1750 50  0000 L CNN
F 2 "opendous:0805_Opendous" H 7038 1700 30  0001 C CNN
F 3 "" H 7000 1850 60  0000 C CNN
	1    7000 1850
	1    0    0    -1  
$EndComp
$Comp
L CP C14
U 1 1 5615FB09
P 6700 1850
F 0 "C14" H 6725 1950 50  0000 L CNN
F 1 "10uF" H 6725 1750 50  0000 L CNN
F 2 "Capacitors_SMD:c_elec_5x5.3" H 6738 1700 30  0001 C CNN
F 3 "" H 6700 1850 60  0000 C CNN
	1    6700 1850
	1    0    0    -1  
$EndComp
Wire Wire Line
	6700 1700 6700 1600
Connection ~ 6700 1600
Wire Wire Line
	7000 1700 7000 1600
Connection ~ 7000 1600
Wire Wire Line
	6700 2000 6700 2200
Wire Wire Line
	6700 2200 7000 2200
Wire Wire Line
	7000 2200 7000 2000
Wire Wire Line
	2450 2350 2450 2450
Wire Wire Line
	2450 2450 2750 2450
Wire Wire Line
	2750 2450 2750 2350
$Comp
L GNDA #PWR019
U 1 1 5615FD81
P 2600 2500
F 0 "#PWR019" H 2600 2250 50  0001 C CNN
F 1 "GNDA" H 2600 2350 50  0000 C CNN
F 2 "" H 2600 2500 60  0000 C CNN
F 3 "" H 2600 2500 60  0000 C CNN
	1    2600 2500
	1    0    0    -1  
$EndComp
Wire Wire Line
	2600 2500 2600 2450
Connection ~ 2600 2450
$Comp
L GNDA #PWR020
U 1 1 5615FE48
P 6850 2250
F 0 "#PWR020" H 6850 2000 50  0001 C CNN
F 1 "GNDA" H 6850 2100 50  0000 C CNN
F 2 "" H 6850 2250 60  0000 C CNN
F 3 "" H 6850 2250 60  0000 C CNN
	1    6850 2250
	1    0    0    -1  
$EndComp
Wire Wire Line
	6850 2250 6850 2200
Connection ~ 6850 2200
$EndSCHEMATC
