PCBNEW-LibModule-V1  mar 02 sep 2014 20:14:14 ART
# encoding utf-8
Units mm
$INDEX
LPCXpresso
$EndINDEX
$MODULE LPCXpresso
Po 0 0 0 15 54064EBD 00000000 ~~
Li LPCXpresso
Cd LPCXpresso connector, 2x27 pins
Kw LPCXpresso
Sc 0
AR /50827286
Op 0 0 0
T0 -40.64 0 0.63246 0.63246 900 0.15748 N V 21 N "P?"
T1 -39.37 0 0.63246 0.63246 900 0.15748 N V 21 N "LPCXpresso"
DS -35.56 13.97 35.56 13.97 0.15 21
DS 35.56 13.97 35.56 -13.97 0.15 21
DS 35.56 -13.97 -38.1 -13.97 0.15 21
DS -38.1 -13.97 -38.1 -1.27 0.15 21
DS -38.1 -1.27 -36.83 -1.27 0.15 21
DS -36.83 -1.27 -36.83 1.27 0.15 21
DS -36.83 1.27 -38.1 1.27 0.15 21
DS -38.1 1.27 -38.1 13.97 0.15 21
DS -38.1 13.97 -35.56 13.97 0.15 21
$PAD
Sh "36" C 2 2 0 0 0
Dr 0.7 0 0
At STD N 00E0FFFF
Ne 0 ""
Po -12.7 -11.43
$EndPAD
$PAD
Sh "34" C 2 2 0 0 0
Dr 0.7 0 0
At STD N 00E0FFFF
Ne 0 ""
Po -17.78 -11.43
$EndPAD
$PAD
Sh "32" C 2 2 0 0 0
Dr 0.7 0 0
At STD N 00E0FFFF
Ne 0 ""
Po -22.86 -11.43
$EndPAD
$PAD
Sh "30" C 2 2 0 0 0
Dr 0.7 0 0
At STD N 00E0FFFF
Ne 0 ""
Po -27.94 -11.43
$EndPAD
$PAD
Sh "53" C 2 2 0 0 0
Dr 0.7 0 0
At STD N 00E0FFFF
Ne 0 ""
Po 30.48 -11.43
$EndPAD
$PAD
Sh "51" C 2 2 0 0 0
Dr 0.7 0 0
At STD N 00E0FFFF
Ne 0 ""
Po 25.4 -11.43
$EndPAD
$PAD
Sh "49" C 2 2 0 0 0
Dr 0.7 0 0
At STD N 00E0FFFF
Ne 0 ""
Po 20.32 -11.43
$EndPAD
$PAD
Sh "47" C 2 2 0 0 0
Dr 0.7 0 0
At STD N 00E0FFFF
Ne 0 ""
Po 15.24 -11.43
$EndPAD
$PAD
Sh "54" C 2 2 0 0 0
Dr 0.7 0 0
At STD N 00E0FFFF
Ne 0 ""
Po 33.02 -11.43
$EndPAD
$PAD
Sh "45" C 2 2 0 0 0
Dr 0.7 0 0
At STD N 00E0FFFF
Ne 0 ""
Po 10.16 -11.43
$EndPAD
$PAD
Sh "52" C 2 2 0 0 0
Dr 0.7 0 0
At STD N 00E0FFFF
Ne 0 ""
Po 27.94 -11.43
$EndPAD
$PAD
Sh "43" C 2 2 0 0 0
Dr 0.7 0 0
At STD N 00E0FFFF
Ne 0 ""
Po 5.08 -11.43
$EndPAD
$PAD
Sh "50" C 2 2 0 0 0
Dr 0.7 0 0
At STD N 00E0FFFF
Ne 0 ""
Po 22.86 -11.43
$EndPAD
$PAD
Sh "41" C 2 2 0 0 0
Dr 0.7 0 0
At STD N 00E0FFFF
Ne 0 ""
Po 0 -11.43
$EndPAD
$PAD
Sh "48" C 2 2 0 0 0
Dr 0.7 0 0
At STD N 00E0FFFF
Ne 0 ""
Po 17.78 -11.43
$EndPAD
$PAD
Sh "39" C 2 2 0 0 0
Dr 0.7 0 0
At STD N 00E0FFFF
Ne 0 ""
Po -5.08 -11.43
$EndPAD
$PAD
Sh "46" C 2 2 0 0 0
Dr 0.7 0 0
At STD N 00E0FFFF
Ne 0 ""
Po 12.7 -11.43
$EndPAD
$PAD
Sh "37" C 2 2 0 0 0
Dr 0.7 0 0
At STD N 00E0FFFF
Ne 0 ""
Po -10.16 -11.43
$EndPAD
$PAD
Sh "44" C 2 2 0 0 0
Dr 0.7 0 0
At STD N 00E0FFFF
Ne 0 ""
Po 7.62 -11.43
$EndPAD
$PAD
Sh "35" C 2 2 0 0 0
Dr 0.7 0 0
At STD N 00E0FFFF
Ne 0 ""
Po -15.24 -11.43
$EndPAD
$PAD
Sh "42" C 2 2 0 0 0
Dr 0.7 0 0
At STD N 00E0FFFF
Ne 0 ""
Po 2.54 -11.43
$EndPAD
$PAD
Sh "33" C 2 2 0 0 0
Dr 0.7 0 0
At STD N 00E0FFFF
Ne 0 ""
Po -20.32 -11.43
$EndPAD
$PAD
Sh "40" C 2 2 0 0 0
Dr 0.7 0 0
At STD N 00E0FFFF
Ne 0 ""
Po -2.54 -11.43
$EndPAD
$PAD
Sh "31" C 2 2 0 0 0
Dr 0.7 0 0
At STD N 00E0FFFF
Ne 0 ""
Po -25.4 -11.43
$EndPAD
$PAD
Sh "38" C 2 2 0 0 0
Dr 0.7 0 0
At STD N 00E0FFFF
Ne 0 ""
Po -7.62 -11.43
$EndPAD
$PAD
Sh "29" C 2 2 0 0 0
Dr 0.7 0 0
At STD N 00E0FFFF
Ne 0 ""
Po -30.48 -11.43
$EndPAD
$PAD
Sh "28" R 1.524 1.524 0 0 0
Dr 0.7 0 0
At STD N 00E0FFFF
Ne 0 ""
Po -33.02 -11.43
$EndPAD
$PAD
Sh "1" R 1.524 1.524 0 0 0
Dr 0.7 0 0
At STD N 00E0FFFF
Ne 0 ""
Po -33.02 11.43
$EndPAD
$PAD
Sh "2" C 2 2 0 0 0
Dr 0.7 0 0
At STD N 00E0FFFF
Ne 0 ""
Po -30.48 11.43
$EndPAD
$PAD
Sh "11" C 2 2 0 0 0
Dr 0.7 0 0
At STD N 00E0FFFF
Ne 0 ""
Po -7.62 11.43
$EndPAD
$PAD
Sh "4" C 2 2 0 0 0
Dr 0.7 0 0
At STD N 00E0FFFF
Ne 0 ""
Po -25.4 11.43
$EndPAD
$PAD
Sh "13" C 2 2 0 0 0
Dr 0.7 0 0
At STD N 00E0FFFF
Ne 0 ""
Po -2.54 11.43
$EndPAD
$PAD
Sh "6" C 2 2 0 0 0
Dr 0.7 0 0
At STD N 00E0FFFF
Ne 0 ""
Po -20.32 11.43
$EndPAD
$PAD
Sh "15" C 2 2 0 0 0
Dr 0.7 0 0
At STD N 00E0FFFF
Ne 0 ""
Po 2.54 11.43
$EndPAD
$PAD
Sh "8" C 2 2 0 0 0
Dr 0.7 0 0
At STD N 00E0FFFF
Ne 0 ""
Po -15.24 11.43
$EndPAD
$PAD
Sh "17" C 2 2 0 0 0
Dr 0.7 0 0
At STD N 00E0FFFF
Ne 0 ""
Po 7.62 11.43
$EndPAD
$PAD
Sh "10" C 2 2 0 0 0
Dr 0.7 0 0
At STD N 00E0FFFF
Ne 0 ""
Po -10.16 11.43
$EndPAD
$PAD
Sh "19" C 2 2 0 0 0
Dr 0.7 0 0
At STD N 00E0FFFF
Ne 0 ""
Po 12.7 11.43
$EndPAD
$PAD
Sh "12" C 2 2 0 0 0
Dr 0.7 0 0
At STD N 00E0FFFF
Ne 0 ""
Po -5.08 11.43
$EndPAD
$PAD
Sh "21" C 2 2 0 0 0
Dr 0.7 0 0
At STD N 00E0FFFF
Ne 0 ""
Po 17.78 11.43
$EndPAD
$PAD
Sh "14" C 2 2 0 0 0
Dr 0.7 0 0
At STD N 00E0FFFF
Ne 0 ""
Po 0 11.43
$EndPAD
$PAD
Sh "23" C 2 2 0 0 0
Dr 0.7 0 0
At STD N 00E0FFFF
Ne 0 ""
Po 22.86 11.43
$EndPAD
$PAD
Sh "16" C 2 2 0 0 0
Dr 0.7 0 0
At STD N 00E0FFFF
Ne 0 ""
Po 5.08 11.43
$EndPAD
$PAD
Sh "25" C 2 2 0 0 0
Dr 0.7 0 0
At STD N 00E0FFFF
Ne 0 ""
Po 27.94 11.43
$EndPAD
$PAD
Sh "18" C 2 2 0 0 0
Dr 0.7 0 0
At STD N 00E0FFFF
Ne 0 ""
Po 10.16 11.43
$EndPAD
$PAD
Sh "27" C 2 2 0 0 0
Dr 0.7 0 0
At STD N 00E0FFFF
Ne 0 ""
Po 33.02 11.43
$EndPAD
$PAD
Sh "20" C 2 2 0 0 0
Dr 0.7 0 0
At STD N 00E0FFFF
Ne 0 ""
Po 15.24 11.43
$EndPAD
$PAD
Sh "22" C 2 2 0 0 0
Dr 0.7 0 0
At STD N 00E0FFFF
Ne 0 ""
Po 20.32 11.43
$EndPAD
$PAD
Sh "24" C 2 2 0 0 0
Dr 0.7 0 0
At STD N 00E0FFFF
Ne 0 ""
Po 25.4 11.43
$EndPAD
$PAD
Sh "26" C 2 2 0 0 0
Dr 0.7 0 0
At STD N 00E0FFFF
Ne 0 ""
Po 30.48 11.43
$EndPAD
$PAD
Sh "3" C 2 2 0 0 0
Dr 0.7 0 0
At STD N 00E0FFFF
Ne 0 ""
Po -27.94 11.43
$EndPAD
$PAD
Sh "5" C 2 2 0 0 0
Dr 0.7 0 0
At STD N 00E0FFFF
Ne 0 ""
Po -22.86 11.43
$EndPAD
$PAD
Sh "7" C 2 2 0 0 0
Dr 0.7 0 0
At STD N 00E0FFFF
Ne 0 ""
Po -17.78 11.43
$EndPAD
$PAD
Sh "9" C 2 2 0 0 0
Dr 0.7 0 0
At STD N 00E0FFFF
Ne 0 ""
Po -12.7 11.43
$EndPAD
$EndMODULE LPCXpresso
$EndLIBRARY
