%!PS-Adobe-3.0 EPSF-3.0
%%Creator: cairo 1.14.2 (http://cairographics.org)
%%CreationDate: Mon Dec 21 03:13:13 2015
%%Pages: 1
%%DocumentData: Clean7Bit
%%LanguageLevel: 2
%%BoundingBox: 0 2 444 116
%%EndComments
%%BeginProlog
save
50 dict begin
/q { gsave } bind def
/Q { grestore } bind def
/cm { 6 array astore concat } bind def
/w { setlinewidth } bind def
/J { setlinecap } bind def
/j { setlinejoin } bind def
/M { setmiterlimit } bind def
/d { setdash } bind def
/m { moveto } bind def
/l { lineto } bind def
/c { curveto } bind def
/h { closepath } bind def
/re { exch dup neg 3 1 roll 5 3 roll moveto 0 rlineto
      0 exch rlineto 0 rlineto closepath } bind def
/S { stroke } bind def
/f { fill } bind def
/f* { eofill } bind def
/n { newpath } bind def
/W { clip } bind def
/W* { eoclip } bind def
/BT { } bind def
/ET { } bind def
/pdfmark where { pop globaldict /?pdfmark /exec load put }
    { globaldict begin /?pdfmark /pop load def /pdfmark
    /cleartomark load def end } ifelse
/BDC { mark 3 1 roll /BDC pdfmark } bind def
/EMC { mark /EMC pdfmark } bind def
/cairo_store_point { /cairo_point_y exch def /cairo_point_x exch def } def
/Tj { show currentpoint cairo_store_point } bind def
/TJ {
  {
    dup
    type /stringtype eq
    { show } { -0.001 mul 0 cairo_font_matrix dtransform rmoveto } ifelse
  } forall
  currentpoint cairo_store_point
} bind def
/cairo_selectfont { cairo_font_matrix aload pop pop pop 0 0 6 array astore
    cairo_font exch selectfont cairo_point_x cairo_point_y moveto } bind def
/Tf { pop /cairo_font exch def /cairo_font_matrix where
      { pop cairo_selectfont } if } bind def
/Td { matrix translate cairo_font_matrix matrix concatmatrix dup
      /cairo_font_matrix exch def dup 4 get exch 5 get cairo_store_point
      /cairo_font where { pop cairo_selectfont } if } bind def
/Tm { 2 copy 8 2 roll 6 array astore /cairo_font_matrix exch def
      cairo_store_point /cairo_font where { pop cairo_selectfont } if } bind def
/g { setgray } bind def
/rg { setrgbcolor } bind def
/d1 { setcachedevice } bind def
%%EndProlog
%%BeginSetup
%%EndSetup
%%Page: 1 1
%%BeginPageSetup
%%PageBoundingBox: 0 2 444 116
%%EndPageSetup
q 0 2 444 114 rectclip q
0 g
0.432 w
1 J
1 j
[] 0.0 d
10 M 222.195 36.5 m 220.754 38.516 l S
219.676 36.5 m 219.676 40.816 l 221.332 40.816 l 221.762 40.602 l 221.98
 40.387 l 222.195 39.953 l 222.195 39.379 l 221.98 38.945 l 221.762 38.73
 l 221.332 38.516 l 219.676 38.516 l S
223.996 38.152 m 227.309 38.152 l S
225.652 36.5 m 225.652 39.809 l S
222.195 25.699 m 220.754 27.715 l S
219.676 25.699 m 219.676 30.02 l 221.332 30.02 l 221.762 29.801 l 221.98
 29.586 l 222.195 29.152 l 222.195 28.578 l 221.98 28.145 l 221.762 27.93
 l 221.332 27.715 l 219.676 27.715 l S
223.996 27.355 m 227.309 27.355 l S
0.517647 0 0 rg
0.72 w
135.867 74.441 14.398 -5.758 re S
0.432 w
150.266 71.562 m 153.867 71.562 l S
135.867 71.562 m 132.266 71.562 l S
0 0.517647 0.517647 rg
140.691 64.363 m 139.539 66.09 l S
138.676 64.363 m 138.676 67.961 l 140.043 67.961 l 140.402 67.816 l 140.547
 67.676 l 140.691 67.312 l 140.691 66.809 l 140.547 66.449 l 140.402 66.305
 l 140.043 66.09 l 138.676 66.09 l S
142.133 67.676 m 142.273 67.816 l 142.637 67.961 l 143.5 67.961 l 143.785
 67.816 l 144.004 67.676 l 144.148 67.312 l 144.148 66.953 l 144.004 66.449
 l 141.914 64.363 l 144.148 64.363 l S
145.586 67.676 m 145.73 67.816 l 146.09 67.961 l 146.957 67.961 l 147.242
 67.816 l 147.461 67.676 l 147.602 67.312 l 147.602 66.953 l 147.461 66.449
 l 145.371 64.363 l 147.602 64.363 l S
140.547 70.121 m 138.531 70.121 l S
139.539 70.121 m 139.539 73.723 l 139.18 73.219 l 138.82 72.859 l 138.531
 72.715 l S
142.777 73.723 m 143.141 73.723 l 143.5 73.578 l 143.645 73.434 l 143.859
 73.074 l 144.004 72.355 l 144.004 71.488 l 143.859 70.844 l 143.645 70.48
 l 143.5 70.34 l 143.141 70.121 l 142.777 70.121 l 142.492 70.34 l 142.273
 70.48 l 142.133 70.844 l 141.988 71.488 l 141.988 72.355 l 142.133 73.074
 l 142.273 73.434 l 142.492 73.578 l 142.777 73.723 l S
145.586 70.121 m 145.586 73.723 l S
147.602 70.121 m 146.09 72.211 l S
147.602 73.723 m 145.586 71.707 l S
0.517647 0 0 rg
0.72 w
135.867 60.043 14.398 -5.762 re S
0.432 w
150.266 57.164 m 153.867 57.164 l S
135.867 57.164 m 132.266 57.164 l S
0 0.517647 0.517647 rg
140.691 49.961 m 139.539 51.691 l S
138.676 49.961 m 138.676 53.562 l 140.043 53.562 l 140.402 53.418 l 140.547
 53.273 l 140.691 52.914 l 140.691 52.41 l 140.547 52.051 l 140.402 51.906
 l 140.043 51.691 l 138.676 51.691 l S
142.133 53.273 m 142.273 53.418 l 142.637 53.562 l 143.5 53.562 l 143.785
 53.418 l 144.004 53.273 l 144.148 52.914 l 144.148 52.555 l 144.004 52.051
 l 141.914 49.961 l 144.148 49.961 l S
145.371 53.562 m 147.602 53.562 l 146.379 52.195 l 146.957 52.195 l 147.242
 52.051 l 147.461 51.906 l 147.602 51.547 l 147.602 50.684 l 147.461 50.32
 l 147.242 50.18 l 146.957 49.961 l 145.875 49.961 l 145.586 50.18 l 145.371
 50.32 l S
140.547 55.723 m 138.531 55.723 l S
139.539 55.723 m 139.539 59.32 l 139.18 58.816 l 138.82 58.457 l 138.531
 58.312 l S
142.777 59.32 m 143.141 59.32 l 143.5 59.18 l 143.645 59.035 l 143.859 
58.676 l 144.004 57.953 l 144.004 57.09 l 143.859 56.441 l 143.645 56.082
 l 143.5 55.938 l 143.141 55.723 l 142.777 55.723 l 142.492 55.938 l 142.273
 56.082 l 142.133 56.441 l 141.988 57.09 l 141.988 57.953 l 142.133 58.676
 l 142.273 59.035 l 142.492 59.18 l 142.777 59.32 l S
145.586 55.723 m 145.586 59.32 l S
147.602 55.723 m 146.09 57.809 l S
147.602 59.32 m 145.586 57.305 l S
0 g
318.871 84.02 m 320.312 79.699 l 321.75 84.02 l S
323.121 79.699 m 323.121 82.578 l S
323.121 81.715 m 323.336 82.145 l 323.551 82.363 l 323.984 82.578 l 324.344
 82.578 l S
327.441 79.914 m 327.008 79.699 l 326.215 79.699 l 325.785 79.914 l 325.566
 80.273 l 325.566 81.93 l 325.785 82.363 l 326.215 82.578 l 327.008 82.578
 l 327.441 82.363 l 327.656 81.93 l 327.656 81.57 l 325.566 81.137 l S
328.879 82.578 m 330.535 82.578 l S
329.457 79.699 m 329.457 83.371 l 329.672 83.801 l 330.105 84.02 l 330.535
 84.02 l S
0.517647 0 0 rg
121.469 71.562 m 121.469 67.961 l 125.066 67.961 l 121.469 64.363 l 117.867
 67.961 l 121.469 67.961 l S
0 0.517647 0.517647 rg
117.219 62.777 m 116.859 62.922 l 116.355 62.922 l 115.852 62.777 l 115.492
 62.418 l 115.348 62.059 l 115.203 61.41 l 115.203 60.906 l 115.348 60.188
 l 115.492 59.898 l 115.852 59.539 l 116.355 59.32 l 116.715 59.32 l 117.219
 59.539 l 117.363 59.684 l 117.363 60.906 l 116.715 60.906 l S
118.945 59.32 m 118.945 62.922 l 120.965 59.32 l 120.965 62.922 l S
122.691 59.32 m 122.691 62.922 l 123.555 62.922 l 124.059 62.777 l 124.418
 62.418 l 124.562 62.059 l 124.707 61.41 l 124.707 60.906 l 124.562 60.188
 l 124.418 59.898 l 124.059 59.539 l 123.555 59.32 l 122.691 59.32 l S
126.148 60.402 m 127.805 60.402 l S
125.785 59.32 m 126.938 62.922 l 128.164 59.32 l S
0.517647 0 0 rg
0.72 w
49.469 78.043 14.398 -5.762 re S
0.432 w
49.469 75.164 m 45.867 75.164 l S
63.867 75.164 m 67.469 75.164 l S
0 0.517647 0.517647 rg
68.691 76.891 m 67.539 78.617 l S
66.676 76.891 m 66.676 80.488 l 68.043 80.488 l 68.402 80.348 l 68.547 
80.203 l 68.691 79.844 l 68.691 79.34 l 68.547 78.977 l 68.402 78.836 l 
68.043 78.617 l 66.676 78.617 l S
72.148 76.891 m 70.133 76.891 l S
71.141 76.891 m 71.141 80.488 l 70.777 79.984 l 70.418 79.625 l 70.133 
79.48 l S
75.602 76.891 m 73.586 76.891 l S
74.594 76.891 m 74.594 80.488 l 74.234 79.984 l 73.875 79.625 l 73.586 
79.48 l S
50.691 73.289 m 51.41 73.289 l 51.77 73.508 l 51.914 73.648 l 52.273 74.152
 l 52.418 74.875 l 52.418 76.242 l 52.273 76.602 l 52.059 76.746 l 51.77
 76.891 l 51.051 76.891 l 50.691 76.746 l 50.547 76.602 l 50.402 76.242 
l 50.402 75.379 l 50.547 75.02 l 50.691 74.875 l 51.051 74.656 l 51.77 74.656
 l 52.059 74.875 l 52.273 75.02 l 52.418 75.379 l S
55.875 73.289 m 53.859 73.289 l S
54.867 73.289 m 54.867 76.891 l 54.508 76.387 l 54.148 76.027 l 53.859 
75.883 l S
58.105 76.891 m 58.469 76.891 l 58.828 76.746 l 58.973 76.602 l 59.188 
76.242 l 59.332 75.523 l 59.332 74.656 l 59.188 74.012 l 58.973 73.648 l
 58.828 73.508 l 58.469 73.289 l 58.105 73.289 l 57.82 73.508 l 57.602 73.648
 l 57.461 74.012 l 57.316 74.656 l 57.316 75.523 l 57.461 76.242 l 57.602
 76.602 l 57.82 76.746 l 58.105 76.891 l S
60.914 73.289 m 60.914 76.891 l S
62.93 73.289 m 61.418 75.379 l S
62.93 76.891 m 60.914 74.875 l S
0.517647 0 0 rg
0.72 w
49.469 70.844 14.398 -5.762 re S
0.432 w
63.867 67.961 m 67.469 67.961 l S
49.469 67.961 m 45.867 67.961 l S
0 0.517647 0.517647 rg
68.691 70.121 m 67.539 71.852 l S
66.676 70.121 m 66.676 73.723 l 68.043 73.723 l 68.402 73.578 l 68.547 
73.434 l 68.691 73.074 l 68.691 72.57 l 68.547 72.211 l 68.402 72.066 l 
68.043 71.852 l 66.676 71.852 l S
72.148 70.121 m 70.133 70.121 l S
71.141 70.121 m 71.141 73.723 l 70.777 73.219 l 70.418 72.859 l 70.133 
72.715 l S
73.586 73.434 m 73.73 73.578 l 74.09 73.723 l 74.957 73.723 l 75.242 73.578
 l 75.461 73.434 l 75.602 73.074 l 75.602 72.715 l 75.461 72.211 l 73.371
 70.121 l 75.602 70.121 l S
53.785 68.969 m 53.785 66.523 l S
52.922 70.34 m 52.133 67.746 l 54.293 67.746 l S
55.371 70.121 m 57.746 70.121 l 56.234 66.523 l S
59.188 66.523 m 59.188 70.121 l S
61.203 66.523 m 59.691 68.609 l S
61.203 70.121 m 59.188 68.105 l S
0.517647 0 0 rg
0.72 w
49.469 56.441 14.398 -5.758 re S
0.432 w
63.867 53.562 m 67.469 53.562 l S
49.469 53.562 m 45.867 53.562 l S
0 0.517647 0.517647 rg
68.691 55.723 m 67.539 57.449 l S
66.676 55.723 m 66.676 59.32 l 68.043 59.32 l 68.402 59.18 l 68.547 59.035
 l 68.691 58.676 l 68.691 58.172 l 68.547 57.809 l 68.402 57.668 l 68.043
 57.449 l 66.676 57.449 l S
72.148 55.723 m 70.133 55.723 l S
71.141 55.723 m 71.141 59.32 l 70.777 58.816 l 70.418 58.457 l 70.133 58.312
 l S
75.242 58.172 m 75.242 55.723 l S
74.379 59.539 m 73.586 56.945 l 75.746 56.945 l S
53.785 55.723 m 53.141 55.723 l 52.777 55.578 l 52.637 55.434 l 52.273 
54.859 l 52.133 54.211 l 52.133 52.844 l 52.273 52.48 l 52.418 52.34 l 52.777
 52.121 l 53.5 52.121 l 53.785 52.34 l 54.004 52.48 l 54.148 52.844 l 54.148
 53.707 l 54.004 54.066 l 53.785 54.211 l 53.5 54.355 l 52.777 54.355 l 
52.418 54.211 l 52.273 54.066 l 52.133 53.707 l S
55.73 52.121 m 55.73 55.723 l S
57.746 52.121 m 56.234 54.211 l S
57.746 55.723 m 55.73 53.707 l S
59.836 54.211 m 59.477 54.355 l 59.332 54.57 l 59.188 54.859 l 59.188 55.074
 l 59.332 55.434 l 59.477 55.578 l 59.836 55.723 l 60.555 55.723 l 60.844
 55.578 l 61.059 55.434 l 61.203 55.074 l 61.203 54.859 l 61.059 54.57 l
 60.844 54.355 l 60.555 54.211 l 59.836 54.211 l 59.477 54.066 l 59.332 
53.852 l 59.188 53.488 l 59.188 52.844 l 59.332 52.48 l 59.477 52.34 l 59.836
 52.121 l 60.555 52.121 l 60.844 52.34 l 61.059 52.48 l 61.203 52.844 l 
61.203 53.488 l 61.059 53.852 l 60.844 54.066 l 60.555 54.211 l S
0.517647 0 0 rg
0.72 w
49.469 49.242 14.398 -5.762 re S
0.432 w
63.867 46.363 m 67.469 46.363 l S
49.469 46.363 m 45.867 46.363 l S
0 0.517647 0.517647 rg
68.691 48.523 m 67.539 50.25 l S
66.676 48.523 m 66.676 52.121 l 68.043 52.121 l 68.402 51.977 l 68.547 
51.836 l 68.691 51.473 l 68.691 50.969 l 68.547 50.609 l 68.402 50.465 l
 68.043 50.25 l 66.676 50.25 l S
72.148 48.523 m 70.133 48.523 l S
71.141 48.523 m 71.141 52.121 l 70.777 51.617 l 70.418 51.258 l 70.133 
51.113 l S
75.461 52.121 m 73.73 52.121 l 73.586 50.465 l 73.73 50.609 l 74.09 50.754
 l 74.957 50.754 l 75.242 50.609 l 75.461 50.465 l 75.602 50.105 l 75.602
 49.242 l 75.461 48.883 l 75.242 48.738 l 74.957 48.523 l 74.09 48.523 l
 73.73 48.738 l 73.586 48.883 l S
53.785 48.523 m 53.141 48.523 l 52.777 48.379 l 52.637 48.234 l 52.273 
47.656 l 52.133 47.012 l 52.133 45.641 l 52.273 45.281 l 52.418 45.137 l
 52.777 44.922 l 53.5 44.922 l 53.785 45.137 l 54.004 45.281 l 54.148 45.641
 l 54.148 46.508 l 54.004 46.867 l 53.785 47.012 l 53.5 47.152 l 52.777 
47.152 l 52.418 47.012 l 52.273 46.867 l 52.133 46.508 l S
55.73 44.922 m 55.73 48.523 l S
57.746 44.922 m 56.234 47.012 l S
57.746 48.523 m 55.73 46.508 l S
59.836 47.012 m 59.477 47.152 l 59.332 47.371 l 59.188 47.656 l 59.188 
47.875 l 59.332 48.234 l 59.477 48.379 l 59.836 48.523 l 60.555 48.523 l
 60.844 48.379 l 61.059 48.234 l 61.203 47.875 l 61.203 47.656 l 61.059 
47.371 l 60.844 47.152 l 60.555 47.012 l 59.836 47.012 l 59.477 46.867 l
 59.332 46.648 l 59.188 46.289 l 59.188 45.641 l 59.332 45.281 l 59.477 
45.137 l 59.836 44.922 l 60.555 44.922 l 60.844 45.137 l 61.059 45.281 l
 61.203 45.641 l 61.203 46.289 l 61.059 46.648 l 60.844 46.867 l 60.555 
47.012 l S
0.517647 0 0 rg
0.72 w
49.469 63.641 14.398 -5.758 re S
0.432 w
49.469 60.762 m 45.867 60.762 l S
63.867 60.762 m 67.469 60.762 l S
0 0.517647 0.517647 rg
68.691 62.488 m 67.539 64.219 l S
66.676 62.488 m 66.676 66.09 l 68.043 66.09 l 68.402 65.945 l 68.547 65.801
 l 68.691 65.441 l 68.691 64.938 l 68.547 64.578 l 68.402 64.434 l 68.043
 64.219 l 66.676 64.219 l S
72.148 62.488 m 70.133 62.488 l S
71.141 62.488 m 71.141 66.09 l 70.777 65.586 l 70.418 65.227 l 70.133 65.082
 l S
73.371 66.09 m 75.602 66.09 l 74.379 64.723 l 74.957 64.723 l 75.242 64.578
 l 75.461 64.434 l 75.602 64.074 l 75.602 63.211 l 75.461 62.852 l 75.242
 62.707 l 74.957 62.488 l 73.875 62.488 l 73.586 62.707 l 73.371 62.852 
l S
52.133 62.203 m 52.273 62.348 l 52.637 62.488 l 53.5 62.488 l 53.785 62.348
 l 54.004 62.203 l 54.148 61.844 l 54.148 61.48 l 54.004 60.977 l 51.914
 58.891 l 54.148 58.891 l S
55.586 62.203 m 55.73 62.348 l 56.09 62.488 l 56.957 62.488 l 57.242 62.348
 l 57.461 62.203 l 57.602 61.844 l 57.602 61.48 l 57.461 60.977 l 55.371
 58.891 l 57.602 58.891 l S
59.188 58.891 m 59.188 62.488 l S
61.203 58.891 m 59.691 60.977 l S
61.203 62.488 m 59.188 60.473 l S
0.517647 0 0 rg
92.668 82.363 m 85.469 82.363 l S
92.668 75.164 m 89.066 82.363 l 85.469 75.164 l h
92.668 75.164 m f
92.668 75.164 m 89.066 82.363 l 85.469 75.164 l h
92.668 75.164 m S
89.066 82.363 m 89.066 89.562 l S
89.066 75.164 m 89.066 67.961 l S
0 0.517647 0.517647 rg
98.141 76.098 m 94.539 76.098 l 94.539 76.961 l 94.684 77.465 l 95.043 
77.824 l 95.402 77.969 l 96.051 78.113 l 96.555 78.113 l 97.273 77.969 l
 97.562 77.824 l 97.922 77.465 l 98.141 76.961 l 98.141 76.098 l S
98.141 81.57 m 98.141 79.555 l S
98.141 80.562 m 94.539 80.562 l 95.043 80.203 l 95.402 79.844 l 95.547 
79.555 l S
83.738 70.984 m 83.738 68.969 l S
83.738 69.977 m 80.141 69.977 l 80.645 69.617 l 81.004 69.258 l 81.148 
68.969 l S
83.738 72.57 m 80.141 72.57 l 83.738 74.586 l 80.141 74.586 l S
81.293 77.824 m 83.738 77.824 l S
79.922 76.961 m 82.516 76.172 l 82.516 78.332 l S
83.738 81.641 m 83.738 79.625 l S
83.738 80.633 m 80.141 80.633 l 80.645 80.273 l 81.004 79.914 l 81.148 
79.625 l S
81.293 84.738 m 83.738 84.738 l S
79.922 83.875 m 82.516 83.082 l 82.516 85.242 l S
81.652 87.188 m 81.508 86.824 l 81.293 86.684 l 81.004 86.539 l 80.785 
86.539 l 80.426 86.684 l 80.281 86.824 l 80.141 87.188 l 80.141 87.906 l
 80.281 88.195 l 80.426 88.41 l 80.785 88.555 l 81.004 88.555 l 81.293 88.41
 l 81.508 88.195 l 81.652 87.906 l 81.652 87.188 l 81.797 86.824 l 82.012
 86.684 l 82.371 86.539 l 83.02 86.539 l 83.379 86.684 l 83.523 86.824 l
 83.738 87.188 l 83.738 87.906 l 83.523 88.195 l 83.379 88.41 l 83.02 88.555
 l 82.371 88.555 l 82.012 88.41 l 81.797 88.195 l 81.652 87.906 l S
0.517647 0 0 rg
92.668 49.961 m 85.469 49.961 l S
92.668 42.762 m 89.066 49.961 l 85.469 42.762 l h
92.668 42.762 m f
92.668 42.762 m 89.066 49.961 l 85.469 42.762 l h
92.668 42.762 m S
89.066 49.961 m 89.066 57.164 l S
89.066 42.762 m 89.066 35.562 l S
0 0.517647 0.517647 rg
98.141 43.699 m 94.539 43.699 l 94.539 44.562 l 94.684 45.066 l 95.043 
45.426 l 95.402 45.57 l 96.051 45.715 l 96.555 45.715 l 97.273 45.57 l 97.562
 45.426 l 97.922 45.066 l 98.141 44.562 l 98.141 43.699 l S
94.828 47.152 m 94.684 47.297 l 94.539 47.656 l 94.539 48.523 l 94.684 
48.809 l 94.828 49.027 l 95.188 49.172 l 95.547 49.172 l 96.051 49.027 l
 98.141 46.938 l 98.141 49.172 l S
83.738 38.586 m 83.738 36.57 l S
83.738 37.578 m 80.141 37.578 l 80.645 37.219 l 81.004 36.859 l 81.148 
36.57 l S
83.738 40.172 m 80.141 40.172 l 83.738 42.188 l 80.141 42.188 l S
81.293 45.426 m 83.738 45.426 l S
79.922 44.562 m 82.516 43.77 l 82.516 45.93 l S
83.738 49.242 m 83.738 47.227 l S
83.738 48.234 m 80.141 48.234 l 80.645 47.875 l 81.004 47.516 l 81.148 
47.227 l S
81.293 52.34 m 83.738 52.34 l S
79.922 51.473 m 82.516 50.684 l 82.516 52.844 l S
81.652 54.785 m 81.508 54.426 l 81.293 54.281 l 81.004 54.137 l 80.785 
54.137 l 80.426 54.281 l 80.281 54.426 l 80.141 54.785 l 80.141 55.508 l
 80.281 55.793 l 80.426 56.012 l 80.785 56.152 l 81.004 56.152 l 81.293 
56.012 l 81.508 55.793 l 81.652 55.508 l 81.652 54.785 l 81.797 54.426 l
 82.012 54.281 l 82.371 54.137 l 83.02 54.137 l 83.379 54.281 l 83.523 54.426
 l 83.738 54.785 l 83.738 55.508 l 83.523 55.793 l 83.379 56.012 l 83.02
 56.152 l 82.371 56.152 l 82.012 56.012 l 81.797 55.793 l 81.652 55.508 
l S
0.517647 0 0 rg
0.72 w
49.469 42.043 14.398 -5.762 re S
0.432 w
49.469 39.164 m 45.867 39.164 l S
63.867 39.164 m 67.469 39.164 l S
0 0.517647 0.517647 rg
68.691 40.891 m 67.539 42.617 l S
66.676 40.891 m 66.676 44.488 l 68.043 44.488 l 68.402 44.348 l 68.547 
44.203 l 68.691 43.844 l 68.691 43.34 l 68.547 42.977 l 68.402 42.836 l 
68.043 42.617 l 66.676 42.617 l S
72.148 40.891 m 70.133 40.891 l S
71.141 40.891 m 71.141 44.488 l 70.777 43.984 l 70.418 43.625 l 70.133 
43.48 l S
75.242 44.488 m 74.594 44.488 l 74.234 44.348 l 74.09 44.203 l 73.73 43.625
 l 73.586 42.977 l 73.586 41.609 l 73.73 41.25 l 73.875 41.105 l 74.234 
40.891 l 74.957 40.891 l 75.242 41.105 l 75.461 41.25 l 75.602 41.609 l 
75.602 42.473 l 75.461 42.836 l 75.242 42.977 l 74.957 43.121 l 74.234 43.121
 l 73.875 42.977 l 73.73 42.836 l 73.586 42.473 l S
53.785 40.891 m 53.141 40.891 l 52.777 40.746 l 52.637 40.602 l 52.273 
40.027 l 52.133 39.379 l 52.133 38.012 l 52.273 37.648 l 52.418 37.508 l
 52.777 37.289 l 53.5 37.289 l 53.785 37.508 l 54.004 37.648 l 54.148 38.012
 l 54.148 38.875 l 54.004 39.234 l 53.785 39.379 l 53.5 39.523 l 52.777 
39.523 l 52.418 39.379 l 52.273 39.234 l 52.133 38.875 l S
55.73 37.289 m 55.73 40.891 l S
57.746 37.289 m 56.234 39.379 l S
57.746 40.891 m 55.73 38.875 l S
59.836 39.379 m 59.477 39.523 l 59.332 39.738 l 59.188 40.027 l 59.188 
40.242 l 59.332 40.602 l 59.477 40.746 l 59.836 40.891 l 60.555 40.891 l
 60.844 40.746 l 61.059 40.602 l 61.203 40.242 l 61.203 40.027 l 61.059 
39.738 l 60.844 39.523 l 60.555 39.379 l 59.836 39.379 l 59.477 39.234 l
 59.332 39.02 l 59.188 38.656 l 59.188 38.012 l 59.332 37.648 l 59.477 37.508
 l 59.836 37.289 l 60.555 37.289 l 60.844 37.508 l 61.059 37.648 l 61.203
 38.012 l 61.203 38.656 l 61.059 39.02 l 60.844 39.234 l 60.555 39.379 l
 S
0.517647 0 0 rg
0.72 w
49.469 34.844 14.398 -5.762 re S
0.432 w
63.867 31.961 m 67.469 31.961 l S
49.469 31.961 m 45.867 31.961 l S
0 0.517647 0.517647 rg
68.691 34.121 m 67.539 35.852 l S
66.676 34.121 m 66.676 37.723 l 68.043 37.723 l 68.402 37.578 l 68.547 
37.434 l 68.691 37.074 l 68.691 36.57 l 68.547 36.211 l 68.402 36.066 l 
68.043 35.852 l 66.676 35.852 l S
72.148 34.121 m 70.133 34.121 l S
71.141 34.121 m 71.141 37.723 l 70.777 37.219 l 70.418 36.859 l 70.133 
36.715 l S
73.371 37.723 m 75.746 37.723 l 74.234 34.121 l S
51.988 34.121 m 54.219 34.121 l 52.996 32.754 l 53.57 32.754 l 53.859 32.609
 l 54.074 32.465 l 54.219 32.105 l 54.219 31.242 l 54.074 30.883 l 53.859
 30.738 l 53.57 30.523 l 52.492 30.523 l 52.203 30.738 l 51.988 30.883 l
 S
55.945 30.523 m 56.668 30.523 l 57.027 30.738 l 57.172 30.883 l 57.531 
31.387 l 57.676 32.105 l 57.676 33.473 l 57.531 33.836 l 57.316 33.977 l
 57.027 34.121 l 56.309 34.121 l 55.945 33.977 l 55.805 33.836 l 55.66 33.473
 l 55.66 32.609 l 55.805 32.25 l 55.945 32.105 l 56.309 31.891 l 57.027 
31.891 l 57.316 32.105 l 57.531 32.25 l 57.676 32.609 l S
59.906 34.121 m 60.266 34.121 l 60.629 33.977 l 60.77 33.836 l 60.988 33.473
 l 61.133 32.754 l 61.133 31.891 l 60.988 31.242 l 60.77 30.883 l 60.629
 30.738 l 60.266 30.523 l 59.906 30.523 l 59.617 30.738 l 59.402 30.883 
l 59.258 31.242 l 59.113 31.891 l 59.113 32.754 l 59.258 33.473 l 59.402
 33.836 l 59.617 33.977 l 59.906 34.121 l S
0.517647 0 0 rg
0.72 w
250.039 67.242 14.402 -5.762 re S
0.432 w
264.441 64.363 m 268.039 64.363 l S
250.039 64.363 m 246.441 64.363 l S
0 0.517647 0.517647 rg
254.863 55.723 m 253.711 57.449 l S
252.848 55.723 m 252.848 59.32 l 254.215 59.32 l 254.574 59.18 l 254.719
 59.035 l 254.863 58.676 l 254.863 58.172 l 254.719 57.809 l 254.574 57.668
 l 254.215 57.449 l 252.848 57.449 l S
258.32 55.723 m 256.305 55.723 l S
257.312 55.723 m 257.312 59.32 l 256.953 58.816 l 256.59 58.457 l 256.305
 58.312 l S
260.406 57.809 m 260.047 57.953 l 259.902 58.172 l 259.758 58.457 l 259.758
 58.676 l 259.902 59.035 l 260.047 59.18 l 260.406 59.32 l 261.129 59.32
 l 261.414 59.18 l 261.633 59.035 l 261.777 58.676 l 261.777 58.457 l 261.633
 58.172 l 261.414 57.953 l 261.129 57.809 l 260.406 57.809 l 260.047 57.668
 l 259.902 57.449 l 259.758 57.09 l 259.758 56.441 l 259.902 56.082 l 260.047
 55.938 l 260.406 55.723 l 261.129 55.723 l 261.414 55.938 l 261.633 56.082
 l 261.777 56.441 l 261.777 57.09 l 261.633 57.449 l 261.414 57.668 l 261.129
 57.809 l S
254.434 66.523 m 253.785 66.523 l 253.422 66.379 l 253.281 66.234 l 252.918
 65.656 l 252.777 65.012 l 252.777 63.641 l 252.918 63.281 l 253.062 63.137
 l 253.422 62.922 l 254.145 62.922 l 254.434 63.137 l 254.648 63.281 l 254.793
 63.641 l 254.793 64.508 l 254.648 64.867 l 254.434 65.012 l 254.145 65.152
 l 253.422 65.152 l 253.062 65.012 l 252.918 64.867 l 252.777 64.508 l S
256.879 65.012 m 256.52 65.152 l 256.375 65.371 l 256.23 65.656 l 256.23
 65.875 l 256.375 66.234 l 256.52 66.379 l 256.879 66.523 l 257.602 66.523
 l 257.887 66.379 l 258.105 66.234 l 258.246 65.875 l 258.246 65.656 l 258.105
 65.371 l 257.887 65.152 l 257.602 65.012 l 256.879 65.012 l 256.52 64.867
 l 256.375 64.648 l 256.23 64.289 l 256.23 63.641 l 256.375 63.281 l 256.52
 63.137 l 256.879 62.922 l 257.602 62.922 l 257.887 63.137 l 258.105 63.281
 l 258.246 63.641 l 258.246 64.289 l 258.105 64.648 l 257.887 64.867 l 257.602
 65.012 l S
260.48 66.523 m 260.84 66.523 l 261.199 66.379 l 261.344 66.234 l 261.559
 65.875 l 261.703 65.152 l 261.703 64.289 l 261.559 63.641 l 261.344 63.281
 l 261.199 63.137 l 260.84 62.922 l 260.48 62.922 l 260.191 63.137 l 259.977
 63.281 l 259.832 63.641 l 259.688 64.289 l 259.688 65.152 l 259.832 65.875
 l 259.977 66.234 l 260.191 66.379 l 260.48 66.523 l S
0.517647 0 0 rg
0.72 w
300.441 67.242 14.398 -5.762 re S
0.432 w
300.441 64.363 m 296.84 64.363 l S
314.84 64.363 m 318.441 64.363 l S
0 0.517647 0.517647 rg
305.262 68.25 m 304.113 69.977 l S
303.246 68.25 m 303.246 71.852 l 304.617 71.852 l 304.977 71.707 l 305.121
 71.562 l 305.262 71.203 l 305.262 70.699 l 305.121 70.34 l 304.977 70.195
 l 304.617 69.977 l 303.246 69.977 l S
308.719 68.25 m 306.703 68.25 l S
307.711 68.25 m 307.711 71.852 l 307.352 71.348 l 306.992 70.984 l 306.703
 70.844 l S
310.449 68.25 m 311.168 68.25 l 311.527 68.465 l 311.672 68.609 l 312.031
 69.113 l 312.176 69.836 l 312.176 71.203 l 312.031 71.562 l 311.816 71.707
 l 311.527 71.852 l 310.809 71.852 l 310.449 71.707 l 310.305 71.562 l 310.16
 71.203 l 310.16 70.34 l 310.305 69.977 l 310.449 69.836 l 310.809 69.617
 l 311.527 69.617 l 311.816 69.836 l 312.031 69.977 l 312.176 70.34 l S
305.121 62.488 m 303.105 62.488 l S
304.113 62.488 m 304.113 66.09 l 303.75 65.586 l 303.391 65.227 l 303.105
 65.082 l S
306.703 62.488 m 306.703 66.09 l S
308.719 62.488 m 307.207 64.578 l S
308.719 66.09 m 306.703 64.074 l S
310.809 64.578 m 310.449 64.723 l 310.305 64.938 l 310.16 65.227 l 310.16
 65.441 l 310.305 65.801 l 310.449 65.945 l 310.809 66.09 l 311.527 66.09
 l 311.816 65.945 l 312.031 65.801 l 312.176 65.441 l 312.176 65.227 l 312.031
 64.938 l 311.816 64.723 l 311.527 64.578 l 310.809 64.578 l 310.449 64.434
 l 310.305 64.219 l 310.16 63.859 l 310.16 63.211 l 310.305 62.852 l 310.449
 62.707 l 310.809 62.488 l 311.527 62.488 l 311.816 62.707 l 312.031 62.852
 l 312.176 63.211 l 312.176 63.859 l 312.031 64.219 l 311.816 64.434 l 311.527
 64.578 l S
0.517647 0 0 rg
222.266 89.562 m 222.266 85.961 l 225.867 85.961 l 222.266 82.363 l 218.668
 85.961 l 222.266 85.961 l S
0 0.517647 0.517647 rg
228.82 87.977 m 228.461 88.121 l 227.957 88.121 l 227.449 87.977 l 227.09
 87.617 l 226.945 87.258 l 226.805 86.609 l 226.805 86.105 l 226.945 85.387
 l 227.09 85.098 l 227.449 84.738 l 227.957 84.523 l 228.316 84.523 l 228.82
 84.738 l 228.965 84.883 l 228.965 86.105 l 228.316 86.105 l S
230.547 84.523 m 230.547 88.121 l 232.562 84.523 l 232.562 88.121 l S
234.293 84.523 m 234.293 88.121 l 235.156 88.121 l 235.66 87.977 l 236.02
 87.617 l 236.164 87.258 l 236.309 86.609 l 236.309 86.105 l 236.164 85.387
 l 236.02 85.098 l 235.66 84.738 l 235.156 84.523 l 234.293 84.523 l S
237.746 85.602 m 239.402 85.602 l S
237.387 84.523 m 238.539 88.121 l 239.762 84.523 l S
0.517647 0 0 rg
1.44 w
269.48 47.801 m 281 47.801 l S
269.48 52.121 m 281 52.121 l S
0.432 w
275.238 52.844 m 275.238 60.762 l S
275.238 47.082 m 275.238 39.164 l S
0 0.517647 0.517647 rg
279.918 56.082 m 279.777 55.938 l 279.273 55.723 l 278.91 55.723 l 278.406
 55.938 l 278.047 56.297 l 277.902 56.586 l 277.758 57.305 l 277.758 57.809
 l 277.902 58.457 l 278.047 58.816 l 278.406 59.18 l 278.91 59.32 l 279.273
 59.32 l 279.777 59.18 l 279.918 59.035 l S
281.145 59.32 m 283.52 59.32 l 282.008 55.723 l S
279.777 41.32 m 277.758 41.32 l S
278.77 41.32 m 278.77 44.922 l 278.406 44.418 l 278.047 44.059 l 277.758
 43.914 l S
282.008 44.922 m 282.367 44.922 l 282.727 44.777 l 282.871 44.633 l 283.086
 44.273 l 283.23 43.555 l 283.23 42.691 l 283.086 42.043 l 282.871 41.684
 l 282.727 41.539 l 282.367 41.32 l 282.008 41.32 l 281.719 41.539 l 281.504
 41.684 l 281.359 42.043 l 281.215 42.691 l 281.215 43.555 l 281.359 44.273
 l 281.504 44.633 l 281.719 44.777 l 282.008 44.922 l S
284.816 43.77 m 284.816 41.32 l S
284.816 43.41 m 284.961 43.555 l 285.32 43.77 l 285.824 43.77 l 286.184
 43.555 l 286.328 43.266 l 286.328 41.32 l S
289.281 43.266 m 288.055 43.266 l S
288.055 41.32 m 288.055 44.922 l 289.785 44.922 l S
0.517647 0 0 rg
1.44 w
359.48 30.523 m 359.48 19.004 l S
363.801 30.523 m 363.801 19.004 l S
0.432 w
364.52 24.762 m 372.441 24.762 l S
358.758 24.762 m 350.84 24.762 l S
0 0.517647 0.517647 rg
371.719 30.883 m 371.574 30.738 l 371.07 30.523 l 370.711 30.523 l 370.207
 30.738 l 369.848 31.098 l 369.703 31.387 l 369.559 32.105 l 369.559 32.609
 l 369.703 33.258 l 369.848 33.617 l 370.207 33.977 l 370.711 34.121 l 371.07
 34.121 l 371.574 33.977 l 371.719 33.836 l S
373.809 32.609 m 373.449 32.754 l 373.305 32.969 l 373.16 33.258 l 373.16
 33.473 l 373.305 33.836 l 373.449 33.977 l 373.809 34.121 l 374.527 34.121
 l 374.816 33.977 l 375.031 33.836 l 375.176 33.473 l 375.176 33.258 l 375.031
 32.969 l 374.816 32.754 l 374.527 32.609 l 373.809 32.609 l 373.449 32.465
 l 373.305 32.25 l 373.16 31.891 l 373.16 31.242 l 373.305 30.883 l 373.449
 30.738 l 373.809 30.523 l 374.527 30.523 l 374.816 30.738 l 375.031 30.883
 l 375.176 31.242 l 375.176 31.891 l 375.031 32.25 l 374.816 32.465 l 374.527
 32.609 l S
349.977 30.523 m 347.961 30.523 l S
348.969 30.523 m 348.969 34.121 l 348.609 33.617 l 348.246 33.258 l 347.961
 33.113 l S
351.559 32.969 m 351.559 30.523 l S
351.559 32.609 m 351.703 32.754 l 352.062 32.969 l 352.566 32.969 l 352.926
 32.754 l 353.07 32.465 l 353.07 30.523 l S
356.023 32.465 m 354.801 32.465 l S
354.801 30.523 m 354.801 34.121 l 356.527 34.121 l S
0.517647 0 0 rg
0.72 w
350.84 13.242 14.398 -5.762 re S
0.432 w
365.238 10.363 m 368.84 10.363 l S
350.84 10.363 m 347.238 10.363 l S
0 0.517647 0.517647 rg
355.664 3.164 m 354.512 4.891 l S
353.648 3.164 m 353.648 6.762 l 355.016 6.762 l 355.375 6.617 l 355.52 
6.473 l 355.664 6.113 l 355.664 5.609 l 355.52 5.25 l 355.375 5.105 l 355.016
 4.891 l 353.648 4.891 l S
357.105 6.473 m 357.246 6.617 l 357.609 6.762 l 358.473 6.762 l 358.758
 6.617 l 358.977 6.473 l 359.121 6.113 l 359.121 5.754 l 358.977 5.25 l 
356.887 3.164 l 359.121 3.164 l S
361.352 6.762 m 361.711 6.762 l 362.07 6.617 l 362.215 6.473 l 362.434 
6.113 l 362.574 5.395 l 362.574 4.531 l 362.434 3.883 l 362.215 3.523 l 
362.07 3.379 l 361.711 3.164 l 361.352 3.164 l 361.062 3.379 l 360.848 3.523
 l 360.703 3.883 l 360.559 4.531 l 360.559 5.395 l 360.703 6.113 l 360.848
 6.473 l 361.062 6.617 l 361.352 6.762 l S
355.52 8.922 m 353.504 8.922 l S
354.512 8.922 m 354.512 12.523 l 354.152 12.02 l 353.793 11.656 l 353.504
 11.516 l S
357.105 8.922 m 357.105 12.523 l S
359.121 8.922 m 357.609 11.012 l S
359.121 12.523 m 357.105 10.508 l S
361.207 11.012 m 360.848 11.152 l 360.703 11.371 l 360.559 11.656 l 360.559
 11.875 l 360.703 12.234 l 360.848 12.379 l 361.207 12.523 l 361.926 12.523
 l 362.215 12.379 l 362.434 12.234 l 362.574 11.875 l 362.574 11.656 l 362.434
 11.371 l 362.215 11.152 l 361.926 11.012 l 361.207 11.012 l 360.848 10.867
 l 360.703 10.648 l 360.559 10.289 l 360.559 9.641 l 360.703 9.281 l 360.848
 9.137 l 361.207 8.922 l 361.926 8.922 l 362.215 9.137 l 362.434 9.281 l
 362.574 9.641 l 362.574 10.289 l 362.434 10.648 l 362.215 10.867 l 361.926
 11.012 l S
0.517647 0 0 rg
275.238 35.562 m 275.238 31.961 l 278.84 31.961 l 275.238 28.363 l 271.641
 31.961 l 275.238 31.961 l S
0 0.517647 0.517647 rg
270.992 26.777 m 270.633 26.922 l 270.129 26.922 l 269.625 26.777 l 269.262
 26.418 l 269.121 26.059 l 268.977 25.41 l 268.977 24.906 l 269.121 24.188
 l 269.262 23.898 l 269.625 23.539 l 270.129 23.32 l 270.488 23.32 l 270.992
 23.539 l 271.137 23.684 l 271.137 24.906 l 270.488 24.906 l S
272.719 23.32 m 272.719 26.922 l 274.734 23.32 l 274.734 26.922 l S
276.465 23.32 m 276.465 26.922 l 277.328 26.922 l 277.832 26.777 l 278.191
 26.418 l 278.336 26.059 l 278.48 25.41 l 278.48 24.906 l 278.336 24.188
 l 278.191 23.898 l 277.832 23.539 l 277.328 23.32 l 276.465 23.32 l S
279.918 24.402 m 281.574 24.402 l S
279.559 23.32 m 280.711 26.922 l 281.938 23.32 l S
0.517647 0 0 rg
0.576 w
8.426 75.164 m 8.426 75.957 9.07 76.602 9.867 76.602 c 10.66 76.602 11.309
 75.957 11.309 75.164 c 11.309 74.367 10.66 73.723 9.867 73.723 c 9.07 73.723
 8.426 74.367 8.426 75.164 c h
8.426 75.164 m S
0.864 w
4.828 75.164 m 4.828 77.941 7.086 80.203 9.867 80.203 c 12.648 80.203 14.906
 77.941 14.906 75.164 c 14.906 72.383 12.648 70.121 9.867 70.121 c 7.086
 70.121 4.828 72.383 4.828 75.164 c h
4.828 75.164 m S
0.432 w
11.309 75.164 m 20.668 75.164 l S
16.777 76.027 m 15.195 76.027 l S
15.988 76.027 m 15.988 78.906 l 15.699 78.473 l 15.41 78.188 l 15.195 78.043
 l S
9.867 70.121 m 9.867 60.762 l S
6.41 64.648 m 6.266 64.793 l 6.125 65.012 l 6.125 65.73 l 6.266 66.02 l
 6.41 66.164 l 6.699 66.234 l 6.988 66.234 l 7.348 66.164 l 9.004 64.508
 l 9.004 66.234 l S
0 0.517647 0.517647 rg
6.484 82.363 m 6.484 85.961 l 7.852 85.961 l 8.211 85.816 l 8.355 85.676
 l 8.5 85.312 l 8.5 84.809 l 8.355 84.449 l 8.211 84.305 l 7.852 84.09 l
 6.484 84.09 l S
9.723 85.961 m 11.957 85.961 l 10.73 84.594 l 11.309 84.594 l 11.594 84.449
 l 11.812 84.305 l 11.957 83.945 l 11.957 83.082 l 11.812 82.723 l 11.594
 82.578 l 11.309 82.363 l 10.227 82.363 l 9.938 82.578 l 9.723 82.723 l S
1.875 67.457 m 2.09 67.961 l 2.234 68.105 l 2.594 68.25 l 3.098 68.25 l
 3.461 68.105 l 3.602 67.961 l 3.82 67.602 l 3.82 66.234 l 0.219 66.234 
l 0.219 67.457 l 0.363 67.746 l 0.508 67.961 l 0.867 68.105 l 1.227 68.105
 l 1.586 67.961 l 1.73 67.746 l 1.875 67.457 l 1.875 66.234 l S
3.82 69.836 m 0.219 69.836 l 3.82 71.852 l 0.219 71.852 l S
3.461 75.594 m 3.602 75.449 l 3.82 74.945 l 3.82 74.586 l 3.602 74.082 
l 3.242 73.723 l 2.957 73.578 l 2.234 73.434 l 1.73 73.434 l 1.082 73.578
 l 0.723 73.723 l 0.363 74.082 l 0.219 74.586 l 0.219 74.945 l 0.363 75.449
 l 0.508 75.594 l S
0.517647 0 0 rg
175.469 49.961 m 204.266 64.363 l S
175.469 78.762 m 175.469 49.961 l S
197.066 57.164 m 193.469 58.961 l S
197.066 71.562 m 193.469 69.762 l S
204.266 64.363 m 175.469 78.762 l S
189.867 57.164 m 189.867 42.762 l S
0 0.517647 0.517647 rg
0.36 w
189.074 49.676 m 187.996 48.953 l S
189.074 48.449 m 186.914 48.449 l 186.914 49.312 l 186.988 49.457 l 187.059
 49.602 l 187.273 49.676 l 187.637 49.676 l 187.777 49.602 l 187.922 49.457
 l 187.996 49.312 l 187.996 48.449 l S
187.637 51.547 m 189.363 51.547 l 189.578 51.473 l 189.652 51.332 l 189.797
 51.113 l 189.797 50.824 l 189.652 50.609 l S
188.93 51.547 m 189.074 51.332 l 189.074 50.898 l 188.93 50.754 l 188.859
 50.609 l 188.645 50.539 l 187.996 50.539 l 187.777 50.609 l 187.637 50.898
 l 187.637 51.332 l 187.707 51.547 l S
0.517647 0 0 rg
0.432 w
193.324 50.754 m 193.324 49.172 l S
193.324 49.961 m 190.441 49.961 l 190.875 49.676 l 191.164 49.387 l 191.309
 49.172 l S
175.469 57.164 m 161.066 57.164 l S
0 0.517647 0.517647 rg
167.188 59.105 m 169.348 59.105 l S
0.517647 0 0 rg
167.477 56.297 m 167.617 56.441 l 167.836 56.586 l 168.555 56.586 l 168.844
 56.441 l 168.988 56.297 l 169.059 56.012 l 169.059 55.723 l 168.988 55.363
 l 167.332 53.707 l 169.059 53.707 l S
175.469 71.562 m 161.066 71.562 l S
0 0.517647 0.517647 rg
167.188 73.508 m 169.348 73.508 l S
168.266 72.426 m 168.266 74.586 l S
0.517647 0 0 rg
167.332 70.984 m 169.059 70.984 l 168.125 69.906 l 168.555 69.906 l 168.844
 69.762 l 168.988 69.617 l 169.059 69.332 l 169.059 68.684 l 168.988 68.395
 l 168.844 68.25 l 168.555 68.105 l 167.691 68.105 l 167.477 68.25 l 167.332
 68.395 l S
182.668 53.562 m 182.668 42.762 l S
0 0.517647 0.517647 rg
178.922 46.145 m 181.805 47.082 l 178.922 48.02 l S
182.09 48.305 m 182.09 50.465 l S
0.517647 0 0 rg
184.18 48.738 m 186.125 48.738 l S
183.098 48.02 m 185.188 47.371 l 185.188 49.098 l S
197.066 71.562 m 197.066 85.961 l S
0 0.517647 0.517647 rg
0.36 w
196.273 77.898 m 195.195 77.18 l S
196.273 76.676 m 194.113 76.676 l 194.113 77.539 l 194.188 77.684 l 194.258
 77.824 l 194.477 77.898 l 194.836 77.898 l 194.98 77.824 l 195.125 77.684
 l 195.195 77.539 l 195.195 76.676 l S
196.133 79.699 m 196.273 79.48 l 196.273 79.051 l 196.133 78.836 l 195.914
 78.762 l 195.125 78.762 l 194.906 78.836 l 194.836 79.051 l 194.836 79.48
 l 194.906 79.699 l 195.125 79.77 l 195.34 79.77 l 195.555 78.762 l S
194.836 80.418 m 194.836 81.211 l S
196.273 80.707 m 194.402 80.707 l 194.188 80.852 l 194.113 80.996 l 194.113
 81.211 l S
0.517647 0 0 rg
0.432 w
197.645 79.48 m 197.645 78.113 l 199.012 77.969 l 198.867 78.113 l 198.723
 78.332 l 198.723 79.051 l 198.867 79.34 l 199.012 79.48 l 199.301 79.555
 l 199.945 79.555 l 200.234 79.48 l 200.379 79.34 l 200.523 79.051 l 200.523
 78.332 l 200.379 78.113 l 200.234 77.969 l S
204.266 64.363 m 218.668 64.363 l S
0 0.517647 0.517647 rg
208.586 68.105 m 209.164 68.105 l 209.449 67.961 l 209.668 67.676 l 209.812
 67.172 l 209.812 66.164 l 209.668 65.656 l 209.449 65.371 l 209.164 65.227
 l 208.586 65.227 l 208.301 65.371 l 208.082 65.656 l 207.938 66.164 l 207.938
 67.172 l 208.082 67.676 l 208.301 67.961 l 208.586 68.105 l S
211.105 68.105 m 211.105 65.801 l 211.18 65.516 l 211.324 65.371 l 211.609
 65.227 l 212.188 65.227 l 212.477 65.371 l 212.547 65.516 l 212.691 65.801
 l 212.691 68.105 l S
213.699 68.105 m 215.355 68.105 l S
214.492 65.227 m 214.492 68.105 l S
0.517647 0 0 rg
212.043 63.785 m 211.469 63.785 l 211.18 63.641 l 211.035 63.5 l 210.82
 63.066 l 210.676 62.562 l 210.676 61.48 l 210.82 61.195 l 210.891 61.051
 l 211.18 60.906 l 211.754 60.906 l 212.043 61.051 l 212.188 61.195 l 212.258
 61.48 l 212.258 62.129 l 212.188 62.418 l 212.043 62.562 l 211.754 62.707
 l 211.18 62.707 l 210.891 62.562 l 210.82 62.418 l 210.676 62.129 l S
182.668 75.164 m 182.668 85.961 l S
0 0.517647 0.517647 rg
178.922 77.824 m 181.805 78.762 l 178.922 79.699 l S
180.723 80.707 m 180.723 82.867 l S
181.805 81.785 m 179.645 81.785 l S
0.517647 0 0 rg
183.242 79.625 m 183.242 81.5 l 186.125 80.273 l S
197.066 57.164 m 197.066 42.762 l S
0 0.517647 0.517647 rg
0.36 w
196.273 49.676 m 195.195 48.953 l S
196.273 48.449 m 194.113 48.449 l 194.113 49.312 l 194.188 49.457 l 194.258
 49.602 l 194.477 49.676 l 194.836 49.676 l 194.98 49.602 l 195.125 49.457
 l 195.195 49.312 l 195.195 48.449 l S
194.836 51.547 m 196.562 51.547 l 196.777 51.473 l 196.852 51.332 l 196.996
 51.113 l 196.996 50.824 l 196.852 50.609 l S
196.133 51.547 m 196.273 51.332 l 196.273 50.898 l 196.133 50.754 l 196.059
 50.609 l 195.844 50.539 l 195.195 50.539 l 194.98 50.609 l 194.906 50.754
 l 194.836 50.898 l 194.836 51.332 l 194.906 51.547 l S
0.517647 0 0 rg
0.432 w
198.867 49.676 m 198.723 49.387 l 198.578 49.312 l 198.363 49.172 l 198.219
 49.172 l 197.93 49.312 l 197.785 49.387 l 197.645 49.676 l 197.645 50.25
 l 197.785 50.539 l 197.93 50.684 l 198.219 50.754 l 198.363 50.754 l 198.578
 50.684 l 198.723 50.539 l 198.867 50.25 l 198.867 49.676 l 199.012 49.387
 l 199.156 49.312 l 199.441 49.172 l 199.945 49.172 l 200.234 49.312 l 200.379
 49.387 l 200.523 49.676 l 200.523 50.25 l 200.379 50.539 l 200.234 50.684
 l 199.945 50.754 l 199.441 50.754 l 199.156 50.684 l 199.012 50.539 l 198.867
 50.25 l S
0 0.517647 0.517647 rg
207.652 85.312 m 207.652 81.281 l 207.867 80.777 l 208.082 80.562 l 208.586
 80.273 l 209.523 80.273 l 210.027 80.562 l 210.242 80.777 l 210.531 81.281
 l 210.531 85.312 l S
212.402 85.312 m 215.785 85.312 l 213.629 80.273 l S
206.715 44.273 m 206.715 49.312 l S
209.09 44.273 m 209.09 49.312 l 211.973 44.273 l 211.973 49.312 l S
214.059 45.715 m 216.508 45.715 l S
213.629 44.273 m 215.281 49.312 l 216.938 44.273 l S
221.258 44.273 m 218.379 44.273 l S
219.82 44.273 m 219.82 49.312 l 219.387 48.594 l 218.883 48.164 l 218.379
 47.875 l S
223.203 48.883 m 223.492 49.098 l 223.922 49.312 l 225.148 49.312 l 225.652
 49.098 l 225.867 48.883 l 226.082 48.379 l 226.082 47.875 l 225.867 47.152
 l 222.988 44.273 l 226.082 44.273 l S
229.035 47.152 m 228.531 47.441 l 228.316 47.656 l 228.027 48.164 l 228.027
 48.379 l 228.316 48.883 l 228.531 49.098 l 229.035 49.312 l 229.973 49.312
 l 230.477 49.098 l 230.691 48.883 l 230.906 48.379 l 230.906 48.164 l 230.691
 47.656 l 230.477 47.441 l 229.973 47.152 l 229.035 47.152 l 228.531 46.938
 l 228.316 46.723 l 228.027 46.219 l 228.027 45.281 l 228.316 44.777 l 228.531
 44.562 l 229.035 44.273 l 229.973 44.273 l 230.477 44.562 l 230.691 44.777
 l 230.906 45.281 l 230.906 46.219 l 230.691 46.723 l 230.477 46.938 l 229.973
 47.152 l S
0.517647 0 0 rg
9.867 57.164 m 9.867 53.562 l 13.469 53.562 l 9.867 49.961 l 6.266 53.562
 l 9.867 53.562 l S
0 0.517647 0.517647 rg
5.617 48.379 m 5.258 48.523 l 4.754 48.523 l 4.25 48.379 l 3.891 48.02 
l 3.746 47.656 l 3.602 47.012 l 3.602 46.508 l 3.746 45.785 l 3.891 45.5
 l 4.25 45.137 l 4.754 44.922 l 5.113 44.922 l 5.617 45.137 l 5.762 45.281
 l 5.762 46.508 l 5.113 46.508 l S
7.348 44.922 m 7.348 48.523 l 9.363 44.922 l 9.363 48.523 l S
11.09 44.922 m 11.09 48.523 l 11.957 48.523 l 12.461 48.379 l 12.82 48.02
 l 12.965 47.656 l 13.105 47.012 l 13.105 46.508 l 12.965 45.785 l 12.82
 45.5 l 12.461 45.137 l 11.957 44.922 l 11.09 44.922 l S
14.547 46.004 m 16.203 46.004 l S
14.188 44.922 m 15.34 48.523 l 16.562 44.922 l S
0.517647 0 0 rg
74.668 31.961 m 74.668 28.363 l 78.266 28.363 l 74.668 24.762 l 71.066 
28.363 l 74.668 28.363 l S
0 0.517647 0.517647 rg
70.418 23.18 m 70.059 23.32 l 69.555 23.32 l 69.051 23.18 l 68.691 22.816
 l 68.547 22.457 l 68.402 21.809 l 68.402 21.305 l 68.547 20.586 l 68.691
 20.297 l 69.051 19.938 l 69.555 19.723 l 69.914 19.723 l 70.418 19.938 
l 70.562 20.082 l 70.562 21.305 l 69.914 21.305 l S
72.148 19.723 m 72.148 23.32 l 74.164 19.723 l 74.164 23.32 l S
75.891 19.723 m 75.891 23.32 l 76.754 23.32 l 77.258 23.18 l 77.617 22.816
 l 77.762 22.457 l 77.906 21.809 l 77.906 21.305 l 77.762 20.586 l 77.617
 20.297 l 77.258 19.938 l 76.754 19.723 l 75.891 19.723 l S
79.348 20.801 m 81.004 20.801 l S
78.988 19.723 m 80.141 23.32 l 81.363 19.723 l S
0.517647 0 0 rg
189.867 13.676 m 193.18 13.676 l S
197.281 16.34 m 195.195 16.34 l 194.98 14.25 l 195.195 14.465 l 195.629
 14.684 l 196.637 14.684 l 197.066 14.465 l 197.281 14.25 l 197.5 13.891
 l 197.5 12.809 l 197.281 12.449 l 197.066 12.234 l 196.637 12.02 l 195.629
 12.02 l 195.195 12.234 l 194.98 12.449 l S
199.082 13.242 m 201.172 13.242 l S
198.723 12.02 m 200.164 16.34 l 201.602 12.02 l S
0.72 w
186.266 13.961 m 188.426 10.074 l 203.617 10.074 l 203.617 17.852 l 188.426
 17.852 l 186.266 13.961 l S
0.432 w
189.867 110.875 m 193.18 110.875 l S
191.523 109.219 m 191.523 112.531 l S
197.281 113.539 m 195.195 113.539 l 194.98 111.449 l 195.195 111.668 l 
195.629 111.883 l 196.637 111.883 l 197.066 111.668 l 197.281 111.449 l 
197.5 111.09 l 197.5 110.012 l 197.281 109.648 l 197.066 109.434 l 196.637
 109.219 l 195.629 109.219 l 195.195 109.434 l 194.98 109.648 l S
199.082 110.441 m 201.172 110.441 l S
198.723 109.219 m 200.164 113.539 l 201.602 109.219 l S
0.72 w
186.266 111.164 m 188.426 107.273 l 203.617 107.273 l 203.617 115.051 l
 188.426 115.051 l 186.266 111.164 l S
0 g
0.432 w
423.633 73.723 m 425.719 73.723 l S
423.273 72.5 m 424.711 76.816 l 426.152 72.5 l S
427.52 75.379 m 427.52 72.5 l S
427.52 74.945 m 427.734 75.164 l 428.168 75.379 l 428.742 75.379 l 429.176
 75.164 l 429.391 74.73 l 429.391 72.5 l S
430.398 72.066 m 433.711 72.066 l S
435.367 72.5 m 434.938 72.715 l 434.719 72.93 l 434.504 73.289 l 434.504
 74.516 l 434.719 74.945 l 434.938 75.164 l 435.367 75.379 l 435.945 75.379
 l 436.375 75.164 l 436.59 74.945 l 436.809 74.516 l 436.809 73.289 l 436.59
 72.93 l 436.375 72.715 l 435.945 72.5 l 435.367 72.5 l S
440.48 75.379 m 440.48 72.5 l S
438.609 75.379 m 438.609 73.074 l 438.824 72.715 l 439.254 72.5 l 439.832
 72.5 l 440.262 72.715 l 440.48 72.93 l S
441.918 75.379 m 443.574 75.379 l S
442.496 76.816 m 442.496 73.074 l 442.711 72.715 l 443.145 72.5 l 443.574
 72.5 l S
1 1 0.760784 rg
354.441 85.961 m 383.238 71.562 l 354.441 57.164 l h
354.441 85.961 m f
0.72 w
354.441 85.961 m 383.238 71.562 l 354.441 57.164 l h
354.441 85.961 m S
0.517647 0 0 rg
0.432 w
354.441 85.961 m 383.238 71.562 l 354.441 57.164 l 354.441 85.961 l S
361.641 60.762 m 361.641 42.762 l S
0 0.517647 0.517647 rg
360.055 62.488 m 362.938 63.426 l 360.055 64.363 l S
361.855 65.371 m 361.855 67.531 l S
0.517647 0 0 rg
358.832 52.34 m 360.777 52.34 l S
357.75 51.617 m 359.84 50.969 l 359.84 52.699 l S
361.641 82.363 m 361.641 100.363 l S
0 0.517647 0.517647 rg
360.055 75.164 m 362.938 76.098 l 360.055 77.035 l S
361.855 78.043 m 361.855 80.203 l S
362.938 79.121 m 360.777 79.121 l S
0.517647 0 0 rg
359.121 91.074 m 358.977 90.785 l 358.832 90.715 l 358.617 90.57 l 358.473
 90.57 l 358.184 90.715 l 358.039 90.785 l 357.895 91.074 l 357.895 91.648
 l 358.039 91.938 l 358.184 92.082 l 358.473 92.152 l 358.617 92.152 l 358.832
 92.082 l 358.977 91.938 l 359.121 91.648 l 359.121 91.074 l 359.262 90.785
 l 359.406 90.715 l 359.695 90.57 l 360.199 90.57 l 360.488 90.715 l 360.633
 90.785 l 360.777 91.074 l 360.777 91.648 l 360.633 91.938 l 360.488 92.082
 l 360.199 92.152 l 359.695 92.152 l 359.406 92.082 l 359.262 91.938 l 359.121
 91.648 l S
354.441 78.762 m 332.84 78.762 l S
0 0.517647 0.517647 rg
356.602 78.547 m 358.758 78.547 l S
357.68 77.465 m 357.68 79.625 l S
0.517647 0 0 rg
344.359 82.508 m 342.992 82.508 l 342.848 81.137 l 342.992 81.281 l 343.207
 81.426 l 343.926 81.426 l 344.215 81.281 l 344.359 81.137 l 344.434 80.852
 l 344.434 80.203 l 344.359 79.914 l 344.215 79.77 l 343.926 79.625 l 343.207
 79.625 l 342.992 79.77 l 342.848 79.914 l S
354.441 64.363 m 332.84 64.363 l S
0 0.517647 0.517647 rg
356.602 64.145 m 358.758 64.145 l S
0.517647 0 0 rg
344.215 68.105 m 343.641 68.105 l 343.352 67.961 l 343.207 67.816 l 342.992
 67.387 l 342.848 66.883 l 342.848 65.801 l 342.992 65.516 l 343.062 65.371
 l 343.352 65.227 l 343.926 65.227 l 344.215 65.371 l 344.359 65.516 l 344.434
 65.801 l 344.434 66.449 l 344.359 66.738 l 344.215 66.883 l 343.926 67.027
 l 343.352 67.027 l 343.062 66.883 l 342.992 66.738 l 342.848 66.449 l S
383.238 71.562 m 404.84 71.562 l S
393.105 75.305 m 394.977 75.305 l 393.75 72.426 l S
0 0.517647 0.517647 rg
366.246 88.555 m 366.246 85.027 l 366.465 84.668 l 366.68 84.449 l 367.113
 84.234 l 367.902 84.234 l 368.336 84.449 l 368.551 84.668 l 368.77 85.027
 l 368.77 88.555 l S
372.656 88.555 m 371.863 88.555 l 371.434 88.34 l 371.215 88.121 l 370.785
 87.547 l 370.566 86.684 l 370.566 85.027 l 370.785 84.668 l 371 84.449 
l 371.434 84.234 l 372.223 84.234 l 372.656 84.449 l 372.871 84.668 l 373.086
 85.027 l 373.086 86.105 l 372.871 86.465 l 372.656 86.684 l 372.223 86.898
 l 371.434 86.898 l 371 86.684 l 370.785 86.465 l 370.566 86.105 l S
376.328 86.465 m 376.977 86.25 l 377.191 86.105 l 377.406 85.676 l 377.406
 85.027 l 377.191 84.668 l 376.977 84.449 l 376.543 84.234 l 374.887 84.234
 l 374.887 88.555 l 376.328 88.555 l 376.758 88.34 l 376.977 88.121 l 377.191
 87.691 l 377.191 87.332 l 376.977 86.898 l 376.758 86.684 l 376.328 86.465
 l 374.887 86.465 l S
368.336 51.836 m 366.246 51.836 l 366.246 56.152 l S
369.777 51.836 m 369.777 56.152 l 371.215 53.059 l 372.656 56.152 l 372.656
 51.836 l S
374.742 54.066 m 376.184 54.066 l S
376.832 51.836 m 374.742 51.836 l 374.742 56.152 l 376.832 56.152 l S
380.504 54.715 m 380.504 51.836 l S
379.496 56.371 m 378.414 53.273 l 381.152 53.273 l S
382.953 51.836 m 383.816 51.836 l 384.176 52.051 l 384.391 52.266 l 384.824
 52.844 l 385.039 53.707 l 385.039 55.289 l 384.824 55.723 l 384.609 55.938
 l 384.176 56.152 l 383.383 56.152 l 382.953 55.938 l 382.734 55.723 l 382.52
 55.289 l 382.52 54.281 l 382.734 53.852 l 382.953 53.707 l 383.383 53.488
 l 384.176 53.488 l 384.609 53.707 l 384.824 53.852 l 385.039 54.281 l S
386.48 56.152 m 389.359 56.152 l 387.488 51.836 l S
390.727 55.723 m 390.945 55.938 l 391.375 56.152 l 392.383 56.152 l 392.816
 55.938 l 393.031 55.723 l 393.246 55.289 l 393.246 54.93 l 393.031 54.281
 l 390.582 51.836 l 393.246 51.836 l S
396.918 56.152 m 396.129 56.152 l 395.695 55.938 l 395.48 55.723 l 395.047
 55.145 l 394.832 54.281 l 394.832 52.625 l 395.047 52.266 l 395.262 52.051
 l 395.695 51.836 l 396.488 51.836 l 396.918 52.051 l 397.137 52.266 l 397.352
 52.625 l 397.352 53.707 l 397.137 54.066 l 396.918 54.281 l 396.488 54.5
 l 395.695 54.5 l 395.262 54.281 l 395.047 54.066 l 394.832 53.707 l S
0.517647 0 0 rg
386.84 42.473 m 390.152 42.473 l S
394.254 45.137 m 392.168 45.137 l 391.953 43.051 l 392.168 43.266 l 392.602
 43.48 l 393.609 43.48 l 394.039 43.266 l 394.254 43.051 l 394.473 42.691
 l 394.473 41.609 l 394.254 41.25 l 394.039 41.035 l 393.609 40.816 l 392.602
 40.816 l 392.168 41.035 l 391.953 41.25 l S
396.055 42.043 m 398.145 42.043 l S
395.695 40.816 m 397.137 45.137 l 398.574 40.816 l S
0.72 w
383.238 42.762 m 385.398 38.875 l 400.59 38.875 l 400.59 46.648 l 385.398
 46.648 l 383.238 42.762 l S
0.432 w
376.039 103.676 m 379.352 103.676 l S
377.695 102.02 m 377.695 105.332 l S
383.457 106.34 m 381.367 106.34 l 381.152 104.25 l 381.367 104.465 l 381.801
 104.684 l 382.809 104.684 l 383.238 104.465 l 383.457 104.25 l 383.672 
103.891 l 383.672 102.809 l 383.457 102.449 l 383.238 102.234 l 382.809 
102.02 l 381.801 102.02 l 381.367 102.234 l 381.152 102.449 l S
385.254 103.242 m 387.344 103.242 l S
384.895 102.02 m 386.336 106.34 l 387.777 102.02 l S
0.72 w
372.441 103.961 m 374.602 100.074 l 389.793 100.074 l 389.793 107.852 l
 374.602 107.852 l 372.441 103.961 l S
0 0.517647 0 rg
0.432 w
412.039 10.363 m 368.84 10.363 l S
318.441 64.363 m 332.84 64.363 l S
268.039 64.363 m 296.84 64.363 l S
332.84 78.762 m 318.441 78.762 l S
9.867 57.164 m 9.867 60.762 l S
76.828 57.164 m 76.828 57.957 77.473 58.602 78.266 58.602 c 79.062 58.602
 79.707 57.957 79.707 57.164 c 79.707 56.367 79.062 55.723 78.266 55.723
 c 77.473 55.723 76.828 56.367 76.828 57.164 c h
76.828 57.164 m f
0.72 w
76.828 57.164 m 76.828 57.957 77.473 58.602 78.266 58.602 c 79.062 58.602
 79.707 57.957 79.707 57.164 c 79.707 56.367 79.062 55.723 78.266 55.723
 c 77.473 55.723 76.828 56.367 76.828 57.164 c h
76.828 57.164 m S
0.432 w
275.238 35.562 m 275.238 39.164 l S
410.602 24.762 m 410.602 25.559 411.246 26.203 412.039 26.203 c 412.832
 26.203 413.48 25.559 413.48 24.762 c 413.48 23.969 412.832 23.32 412.039
 23.32 c 411.246 23.32 410.602 23.969 410.602 24.762 c h
410.602 24.762 m f
0.72 w
410.602 24.762 m 410.602 25.559 411.246 26.203 412.039 26.203 c 412.832
 26.203 413.48 25.559 413.48 24.762 c 413.48 23.969 412.832 23.32 412.039
 23.32 c 411.246 23.32 410.602 23.969 410.602 24.762 c h
410.602 24.762 m S
410.602 71.562 m 410.602 72.355 411.246 73.004 412.039 73.004 c 412.832
 73.004 413.48 72.355 413.48 71.562 c 413.48 70.766 412.832 70.121 412.039
 70.121 c 411.246 70.121 410.602 70.766 410.602 71.562 c h
410.602 71.562 m f
410.602 71.562 m 410.602 72.355 411.246 73.004 412.039 73.004 c 412.832
 73.004 413.48 72.355 413.48 71.562 c 413.48 70.766 412.832 70.121 412.039
 70.121 c 411.246 70.121 410.602 70.766 410.602 71.562 c h
410.602 71.562 m S
0.432 w
412.039 71.562 m 412.039 10.363 l S
372.441 24.762 m 412.039 24.762 l S
181.227 96.762 m 181.227 97.559 181.871 98.203 182.668 98.203 c 183.461
 98.203 184.105 97.559 184.105 96.762 c 184.105 95.969 183.461 95.32 182.668
 95.32 c 181.871 95.32 181.227 95.969 181.227 96.762 c h
181.227 96.762 m f
0.72 w
181.227 96.762 m 181.227 97.559 181.871 98.203 182.668 98.203 c 183.461
 98.203 184.105 97.559 184.105 96.762 c 184.105 95.969 183.461 95.32 182.668
 95.32 c 181.871 95.32 181.227 95.969 181.227 96.762 c h
181.227 96.762 m S
0.432 w
67.469 60.762 m 78.266 60.762 l S
67.469 31.961 m 74.668 31.961 l S
38.668 31.961 m 45.867 31.961 l S
38.668 39.164 m 38.668 31.961 l S
45.867 39.164 m 38.668 39.164 l S
78.266 39.164 m 67.469 39.164 l S
78.266 46.363 m 78.266 39.164 l S
67.469 46.363 m 78.266 46.363 l S
89.066 35.562 m 89.066 24.762 l S
121.469 71.562 m 132.266 71.562 l S
38.668 53.562 m 45.867 53.562 l S
38.668 46.363 m 38.668 53.562 l S
45.867 46.363 m 38.668 46.363 l S
78.266 53.562 m 67.469 53.562 l S
78.266 60.762 m 78.266 53.562 l S
38.668 60.762 m 45.867 60.762 l S
38.668 67.961 m 38.668 60.762 l S
45.867 67.961 m 38.668 67.961 l S
78.266 67.961 m 67.469 67.961 l S
78.266 75.164 m 78.266 67.961 l S
67.469 75.164 m 78.266 75.164 l S
20.668 75.164 m 45.867 75.164 l S
197.066 89.562 m 222.266 89.562 l S
197.066 85.961 m 197.066 89.562 l S
182.668 13.961 m 186.266 13.961 l S
182.668 111.164 m 186.266 111.164 l S
153.867 57.164 m 161.066 57.164 l S
153.867 71.562 m 161.066 71.562 l S
182.668 111.164 m 182.668 85.961 l S
182.668 42.762 m 182.668 13.961 l S
189.867 24.762 m 218.668 24.762 l S
189.867 42.762 m 189.867 24.762 l S
197.066 35.562 m 218.668 35.562 l S
197.066 42.762 m 197.066 35.562 l S
404.84 71.562 m 422.84 71.562 l S
78.266 57.164 m 132.266 57.164 l S
87.629 57.164 m 87.629 57.957 88.273 58.602 89.066 58.602 c 89.863 58.602
 90.508 57.957 90.508 57.164 c 90.508 56.367 89.863 55.723 89.066 55.723
 c 88.273 55.723 87.629 56.367 87.629 57.164 c h
87.629 57.164 m f
0.72 w
87.629 57.164 m 87.629 57.957 88.273 58.602 89.066 58.602 c 89.863 58.602
 90.508 57.957 90.508 57.164 c 90.508 56.367 89.863 55.723 89.066 55.723
 c 88.273 55.723 87.629 56.367 87.629 57.164 c h
87.629 57.164 m S
0.432 w
89.066 96.762 m 89.066 89.562 l S
218.57 64.363 m 247.141 64.363 l S
275.238 64.363 m 275.238 60.762 l S
273.801 64.363 m 273.801 65.156 274.445 65.801 275.238 65.801 c 276.035
 65.801 276.68 65.156 276.68 64.363 c 276.68 63.566 276.035 62.922 275.238
 62.922 c 274.445 62.922 273.801 63.566 273.801 64.363 c h
273.801 64.363 m f
0.72 w
273.801 64.363 m 273.801 65.156 274.445 65.801 275.238 65.801 c 276.035
 65.801 276.68 65.156 276.68 64.363 c 276.68 63.566 276.035 62.922 275.238
 62.922 c 274.445 62.922 273.801 63.566 273.801 64.363 c h
273.801 64.363 m S
0.432 w
332.84 24.762 m 350.84 24.762 l S
332.84 64.363 m 332.84 24.762 l S
347.238 10.363 m 293.238 10.363 l S
293.238 10.363 m 293.238 64.363 l S
291.801 64.363 m 291.801 65.156 292.445 65.801 293.238 65.801 c 294.035
 65.801 294.68 65.156 294.68 64.363 c 294.68 63.566 294.035 62.922 293.238
 62.922 c 292.445 62.922 291.801 63.566 291.801 64.363 c h
291.801 64.363 m f
0.72 w
291.801 64.363 m 291.801 65.156 292.445 65.801 293.238 65.801 c 294.035
 65.801 294.68 65.156 294.68 64.363 c 294.68 63.566 294.035 62.922 293.238
 62.922 c 292.445 62.922 291.801 63.566 291.801 64.363 c h
291.801 64.363 m S
0.432 w
361.641 42.762 m 383.238 42.762 l S
361.641 100.363 m 361.641 103.961 l S
361.641 103.961 m 372.441 103.961 l S
89.066 96.762 m 182.668 96.762 l S
89.066 24.762 m 182.668 24.762 l S
181.227 24.762 m 181.227 25.559 181.871 26.203 182.668 26.203 c 183.461
 26.203 184.105 25.559 184.105 24.762 c 184.105 23.969 183.461 23.32 182.668
 23.32 c 181.871 23.32 181.227 23.969 181.227 24.762 c h
181.227 24.762 m f
0.72 w
181.227 24.762 m 181.227 25.559 181.871 26.203 182.668 26.203 c 183.461
 26.203 184.105 25.559 184.105 24.762 c 184.105 23.969 183.461 23.32 182.668
 23.32 c 181.871 23.32 181.227 23.969 181.227 24.762 c h
181.227 24.762 m S
0.432 w
89.066 67.961 m 89.066 57.164 l S
Q Q
showpage
%%Trailer
end restore
%%EOF
