%!PS-Adobe-3.0 EPSF-3.0
%%Creator: cairo 1.14.2 (http://cairographics.org)
%%CreationDate: Mon Dec 21 00:39:25 2015
%%Pages: 1
%%DocumentData: Clean7Bit
%%LanguageLevel: 2
%%BoundingBox: 0 -1 196 167
%%EndComments
%%BeginProlog
save
50 dict begin
/q { gsave } bind def
/Q { grestore } bind def
/cm { 6 array astore concat } bind def
/w { setlinewidth } bind def
/J { setlinecap } bind def
/j { setlinejoin } bind def
/M { setmiterlimit } bind def
/d { setdash } bind def
/m { moveto } bind def
/l { lineto } bind def
/c { curveto } bind def
/h { closepath } bind def
/re { exch dup neg 3 1 roll 5 3 roll moveto 0 rlineto
      0 exch rlineto 0 rlineto closepath } bind def
/S { stroke } bind def
/f { fill } bind def
/f* { eofill } bind def
/n { newpath } bind def
/W { clip } bind def
/W* { eoclip } bind def
/BT { } bind def
/ET { } bind def
/pdfmark where { pop globaldict /?pdfmark /exec load put }
    { globaldict begin /?pdfmark /pop load def /pdfmark
    /cleartomark load def end } ifelse
/BDC { mark 3 1 roll /BDC pdfmark } bind def
/EMC { mark /EMC pdfmark } bind def
/cairo_store_point { /cairo_point_y exch def /cairo_point_x exch def } def
/Tj { show currentpoint cairo_store_point } bind def
/TJ {
  {
    dup
    type /stringtype eq
    { show } { -0.001 mul 0 cairo_font_matrix dtransform rmoveto } ifelse
  } forall
  currentpoint cairo_store_point
} bind def
/cairo_selectfont { cairo_font_matrix aload pop pop pop 0 0 6 array astore
    cairo_font exch selectfont cairo_point_x cairo_point_y moveto } bind def
/Tf { pop /cairo_font exch def /cairo_font_matrix where
      { pop cairo_selectfont } if } bind def
/Td { matrix translate cairo_font_matrix matrix concatmatrix dup
      /cairo_font_matrix exch def dup 4 get exch 5 get cairo_store_point
      /cairo_font where { pop cairo_selectfont } if } bind def
/Tm { 2 copy 8 2 roll 6 array astore /cairo_font_matrix exch def
      cairo_store_point /cairo_font where { pop cairo_selectfont } if } bind def
/g { setgray } bind def
/rg { setrgbcolor } bind def
/d1 { setcachedevice } bind def
%%EndProlog
%%BeginSetup
%%EndSetup
%%Page: 1 1
%%BeginPageSetup
%%PageBoundingBox: 0 -1 196 167
%%EndPageSetup
q 0 -1 196 168 rectclip q
0.517647 0 0 rg
0.72 w
1 J
1 j
[] 0.0 d
10 M q 1 0 0 1 0 166.467072 cm
19.801 -26.566 14.398 -5.762 re S Q
0.432 w
q 1 0 0 1 0 166.467072 cm
34.199 -29.449 m 37.801 -29.449 l S Q
q 1 0 0 1 0 166.467072 cm
19.801 -29.449 m 16.199 -29.449 l S Q
0 0.517647 0.517647 rg
q 1 0 0 1 0 166.467072 cm
11.953 -27.289 m 10.801 -25.559 l S Q
q 1 0 0 1 0 166.467072 cm
9.938 -27.289 m 9.938 -23.688 l 11.305 -23.688 l 11.664 -23.832 l 11.809
 -23.977 l 11.953 -24.336 l 11.953 -24.84 l 11.809 -25.199 l 11.664 -25.344
 l 11.305 -25.559 l 9.938 -25.559 l S Q
q 1 0 0 1 0 166.467072 cm
13.176 -23.688 m 15.406 -23.688 l 14.184 -25.055 l 14.762 -25.055 l 15.047
 -25.199 l 15.266 -25.344 l 15.406 -25.703 l 15.406 -26.566 l 15.266 -26.93
 l 15.047 -27.07 l 14.762 -27.289 l 13.68 -27.289 l 13.391 -27.07 l 13.176
 -26.93 l S Q
q 1 0 0 1 0 166.467072 cm
24.266 -30.887 m 22.246 -30.887 l S Q
q 1 0 0 1 0 166.467072 cm
23.258 -30.887 m 23.258 -27.289 l 22.895 -27.793 l 22.535 -28.152 l 22.246
 -28.297 l S Q
q 1 0 0 1 0 166.467072 cm
27.574 -27.289 m 25.848 -27.289 l 25.703 -28.945 l 25.848 -28.801 l 26.207
 -28.656 l 27.07 -28.656 l 27.359 -28.801 l 27.574 -28.945 l 27.719 -29.305
 l 27.719 -30.168 l 27.574 -30.527 l 27.359 -30.672 l 27.07 -30.887 l 26.207
 -30.887 l 25.848 -30.672 l 25.703 -30.527 l S Q
q 1 0 0 1 0 166.467072 cm
29.305 -30.887 m 29.305 -27.289 l 30.527 -29.809 l 31.68 -27.289 l 31.68
 -30.887 l S Q
0.517647 0 0 rg
0.72 w
q 1 0 0 1 0 166.467072 cm
19.801 -33.77 14.398 -5.758 re S Q
0.432 w
q 1 0 0 1 0 166.467072 cm
34.199 -36.648 m 37.801 -36.648 l S Q
q 1 0 0 1 0 166.467072 cm
19.801 -36.648 m 16.199 -36.648 l S Q
0 0.517647 0.517647 rg
q 1 0 0 1 0 166.467072 cm
11.953 -34.488 m 10.801 -32.762 l S Q
q 1 0 0 1 0 166.467072 cm
9.938 -34.488 m 9.938 -30.887 l 11.305 -30.887 l 11.664 -31.031 l 11.809
 -31.176 l 11.953 -31.535 l 11.953 -32.039 l 11.809 -32.398 l 11.664 -32.543
 l 11.305 -32.762 l 9.938 -32.762 l S Q
q 1 0 0 1 0 166.467072 cm
15.047 -32.039 m 15.047 -34.488 l S Q
q 1 0 0 1 0 166.467072 cm
14.184 -30.672 m 13.391 -33.266 l 15.551 -33.266 l S Q
q 1 0 0 1 0 166.467072 cm
20.734 -34.777 m 20.879 -34.633 l 21.238 -34.488 l 22.105 -34.488 l 22.391
 -34.633 l 22.609 -34.777 l 22.754 -35.137 l 22.754 -35.496 l 22.609 -36
 l 20.52 -38.09 l 22.754 -38.09 l S Q
q 1 0 0 1 0 166.467072 cm
24.191 -34.777 m 24.336 -34.633 l 24.695 -34.488 l 25.559 -34.488 l 25.848
 -34.633 l 26.062 -34.777 l 26.207 -35.137 l 26.207 -35.496 l 26.062 -36
 l 23.977 -38.09 l 26.207 -38.09 l S Q
q 1 0 0 1 0 166.467072 cm
28.441 -34.488 m 28.801 -34.488 l 29.16 -34.633 l 29.305 -34.777 l 29.52
 -35.137 l 29.664 -35.855 l 29.664 -36.719 l 29.52 -37.367 l 29.305 -37.727
 l 29.16 -37.871 l 28.801 -38.09 l 28.441 -38.09 l 28.152 -37.871 l 27.938
 -37.727 l 27.793 -37.367 l 27.648 -36.719 l 27.648 -35.855 l 27.793 -35.137
 l 27.938 -34.777 l 28.152 -34.633 l 28.441 -34.488 l S Q
q 1 0 0 1 0 166.467072 cm
31.246 -38.09 m 31.246 -34.488 l S Q
q 1 0 0 1 0 166.467072 cm
33.266 -38.09 m 31.754 -36 l S Q
q 1 0 0 1 0 166.467072 cm
33.266 -34.488 m 31.246 -36.504 l S Q
0.517647 0 0 rg
0.72 w
q 1 0 0 1 0 166.467072 cm
19.801 -40.969 14.398 -5.758 re S Q
0.432 w
q 1 0 0 1 0 166.467072 cm
34.199 -43.848 m 37.801 -43.848 l S Q
q 1 0 0 1 0 166.467072 cm
19.801 -43.848 m 16.199 -43.848 l S Q
0 0.517647 0.517647 rg
q 1 0 0 1 0 166.467072 cm
11.953 -41.688 m 10.801 -39.961 l S Q
q 1 0 0 1 0 166.467072 cm
9.938 -41.688 m 9.938 -38.09 l 11.305 -38.09 l 11.664 -38.23 l 11.809 -38.375
 l 11.953 -38.734 l 11.953 -39.238 l 11.809 -39.602 l 11.664 -39.742 l 11.305
 -39.961 l 9.938 -39.961 l S Q
q 1 0 0 1 0 166.467072 cm
15.266 -38.09 m 13.535 -38.09 l 13.391 -39.742 l 13.535 -39.602 l 13.895
 -39.457 l 14.762 -39.457 l 15.047 -39.602 l 15.266 -39.742 l 15.406 -40.105
 l 15.406 -40.969 l 15.266 -41.328 l 15.047 -41.473 l 14.762 -41.688 l 13.895
 -41.688 l 13.535 -41.473 l 13.391 -41.328 l S Q
q 1 0 0 1 0 166.467072 cm
22.754 -45.289 m 23.473 -45.289 l 23.832 -45.07 l 23.977 -44.93 l 24.336
 -44.426 l 24.48 -43.703 l 24.48 -42.336 l 24.336 -41.977 l 24.121 -41.832
 l 23.832 -41.688 l 23.113 -41.688 l 22.754 -41.832 l 22.609 -41.977 l 22.465
 -42.336 l 22.465 -43.199 l 22.609 -43.559 l 22.754 -43.703 l 23.113 -43.922
 l 23.832 -43.922 l 24.121 -43.703 l 24.336 -43.559 l 24.48 -43.199 l S Q
q 1 0 0 1 0 166.467072 cm
27.938 -45.289 m 25.922 -45.289 l S Q
q 1 0 0 1 0 166.467072 cm
26.93 -45.289 m 26.93 -41.688 l 26.566 -42.191 l 26.207 -42.551 l 25.922
 -42.695 l S Q
q 1 0 0 1 0 166.467072 cm
29.52 -45.289 m 29.52 -41.688 l S Q
q 1 0 0 1 0 166.467072 cm
31.535 -45.289 m 30.023 -43.199 l S Q
q 1 0 0 1 0 166.467072 cm
31.535 -41.688 m 29.52 -43.703 l S Q
0.517647 0 0 rg
0.72 w
q 1 0 0 1 0 166.467072 cm
19.801 -48.168 14.398 -5.762 re S Q
0.432 w
q 1 0 0 1 0 166.467072 cm
34.199 -51.047 m 37.801 -51.047 l S Q
q 1 0 0 1 0 166.467072 cm
19.801 -51.047 m 16.199 -51.047 l S Q
0 0.517647 0.517647 rg
q 1 0 0 1 0 166.467072 cm
11.953 -48.887 m 10.801 -47.16 l S Q
q 1 0 0 1 0 166.467072 cm
9.938 -48.887 m 9.938 -45.289 l 11.305 -45.289 l 11.664 -45.434 l 11.809
 -45.574 l 11.953 -45.938 l 11.953 -46.441 l 11.809 -46.801 l 11.664 -46.945
 l 11.305 -47.16 l 9.938 -47.16 l S Q
q 1 0 0 1 0 166.467072 cm
15.047 -45.289 m 14.398 -45.289 l 14.039 -45.434 l 13.895 -45.574 l 13.535
 -46.152 l 13.391 -46.801 l 13.391 -48.168 l 13.535 -48.527 l 13.68 -48.672
 l 14.039 -48.887 l 14.762 -48.887 l 15.047 -48.672 l 15.266 -48.527 l 15.406
 -48.168 l 15.406 -47.305 l 15.266 -46.945 l 15.047 -46.801 l 14.762 -46.656
 l 14.039 -46.656 l 13.68 -46.801 l 13.535 -46.945 l 13.391 -47.305 l S Q
q 1 0 0 1 0 166.467072 cm
24.121 -50.039 m 24.121 -52.488 l S Q
q 1 0 0 1 0 166.467072 cm
23.258 -48.672 m 22.465 -51.266 l 24.625 -51.266 l S Q
q 1 0 0 1 0 166.467072 cm
25.703 -48.887 m 28.078 -48.887 l 26.566 -52.488 l S Q
q 1 0 0 1 0 166.467072 cm
29.52 -52.488 m 29.52 -48.887 l S Q
q 1 0 0 1 0 166.467072 cm
31.535 -52.488 m 30.023 -50.398 l S Q
q 1 0 0 1 0 166.467072 cm
31.535 -48.887 m 29.52 -50.902 l S Q
0.517647 0 0 rg
0.72 w
q 1 0 0 1 0 166.467072 cm
19.801 -55.367 14.398 -5.762 re S Q
0.432 w
q 1 0 0 1 0 166.467072 cm
34.199 -58.246 m 37.801 -58.246 l S Q
q 1 0 0 1 0 166.467072 cm
19.801 -58.246 m 16.199 -58.246 l S Q
0 0.517647 0.517647 rg
q 1 0 0 1 0 166.467072 cm
11.953 -56.09 m 10.801 -54.359 l S Q
q 1 0 0 1 0 166.467072 cm
9.938 -56.09 m 9.938 -52.488 l 11.305 -52.488 l 11.664 -52.633 l 11.809
 -52.777 l 11.953 -53.137 l 11.953 -53.641 l 11.809 -54 l 11.664 -54.145
 l 11.305 -54.359 l 9.938 -54.359 l S Q
q 1 0 0 1 0 166.467072 cm
13.176 -52.488 m 15.551 -52.488 l 14.039 -56.09 l S Q
q 1 0 0 1 0 166.467072 cm
22.465 -56.375 m 22.609 -56.23 l 22.969 -56.09 l 23.832 -56.09 l 24.121
 -56.23 l 24.336 -56.375 l 24.48 -56.734 l 24.48 -57.098 l 24.336 -57.602
 l 22.246 -59.688 l 24.48 -59.688 l S Q
q 1 0 0 1 0 166.467072 cm
27.793 -56.09 m 26.062 -56.09 l 25.922 -57.742 l 26.062 -57.602 l 26.426
 -57.457 l 27.289 -57.457 l 27.574 -57.602 l 27.793 -57.742 l 27.938 -58.105
 l 27.938 -58.969 l 27.793 -59.328 l 27.574 -59.473 l 27.289 -59.688 l 26.426
 -59.688 l 26.062 -59.473 l 25.922 -59.328 l S Q
q 1 0 0 1 0 166.467072 cm
29.52 -59.688 m 29.52 -56.09 l S Q
q 1 0 0 1 0 166.467072 cm
31.535 -59.688 m 30.023 -57.602 l S Q
q 1 0 0 1 0 166.467072 cm
31.535 -56.09 m 29.52 -58.105 l S Q
0.517647 0 0 rg
0.72 w
q 1 0 0 1 0 166.467072 cm
19.801 -62.566 14.398 -5.762 re S Q
0.432 w
q 1 0 0 1 0 166.467072 cm
34.199 -65.449 m 37.801 -65.449 l S Q
q 1 0 0 1 0 166.467072 cm
19.801 -65.449 m 16.199 -65.449 l S Q
0 0.517647 0.517647 rg
q 1 0 0 1 0 166.467072 cm
11.953 -63.289 m 10.801 -61.559 l S Q
q 1 0 0 1 0 166.467072 cm
9.938 -63.289 m 9.938 -59.688 l 11.305 -59.688 l 11.664 -59.832 l 11.809
 -59.977 l 11.953 -60.336 l 11.953 -60.84 l 11.809 -61.199 l 11.664 -61.344
 l 11.305 -61.559 l 9.938 -61.559 l S Q
q 1 0 0 1 0 166.467072 cm
14.039 -61.199 m 13.68 -61.055 l 13.535 -60.84 l 13.391 -60.551 l 13.391
 -60.336 l 13.535 -59.977 l 13.68 -59.832 l 14.039 -59.688 l 14.762 -59.688
 l 15.047 -59.832 l 15.266 -59.977 l 15.406 -60.336 l 15.406 -60.551 l 15.266
 -60.84 l 15.047 -61.055 l 14.762 -61.199 l 14.039 -61.199 l 13.68 -61.344
 l 13.535 -61.559 l 13.391 -61.922 l 13.391 -62.566 l 13.535 -62.93 l 13.68
 -63.07 l 14.039 -63.289 l 14.762 -63.289 l 15.047 -63.07 l 15.266 -62.93
 l 15.406 -62.566 l 15.406 -61.922 l 15.266 -61.559 l 15.047 -61.344 l 14.762
 -61.199 l S Q
q 1 0 0 1 0 166.467072 cm
24.48 -66.887 m 22.465 -66.887 l S Q
q 1 0 0 1 0 166.467072 cm
23.473 -66.887 m 23.473 -63.289 l 23.113 -63.793 l 22.754 -64.152 l 22.465
 -64.297 l S Q
q 1 0 0 1 0 166.467072 cm
26.711 -63.289 m 27.07 -63.289 l 27.434 -63.434 l 27.574 -63.574 l 27.793
 -63.938 l 27.938 -64.656 l 27.938 -65.52 l 27.793 -66.168 l 27.574 -66.527
 l 27.434 -66.672 l 27.07 -66.887 l 26.711 -66.887 l 26.426 -66.672 l 26.207
 -66.527 l 26.062 -66.168 l 25.922 -65.52 l 25.922 -64.656 l 26.062 -63.938
 l 26.207 -63.574 l 26.426 -63.434 l 26.711 -63.289 l S Q
q 1 0 0 1 0 166.467072 cm
29.52 -66.887 m 29.52 -63.289 l S Q
q 1 0 0 1 0 166.467072 cm
31.535 -66.887 m 30.023 -64.801 l S Q
q 1 0 0 1 0 166.467072 cm
31.535 -63.289 m 29.52 -65.305 l S Q
0.517647 0 0 rg
0.72 w
q 1 0 0 1 0 166.467072 cm
19.801 -69.77 14.398 -5.758 re S Q
0.432 w
q 1 0 0 1 0 166.467072 cm
34.199 -72.648 m 37.801 -72.648 l S Q
q 1 0 0 1 0 166.467072 cm
19.801 -72.648 m 16.199 -72.648 l S Q
0 0.517647 0.517647 rg
q 1 0 0 1 0 166.467072 cm
11.953 -70.488 m 10.801 -68.762 l S Q
q 1 0 0 1 0 166.467072 cm
9.938 -70.488 m 9.938 -66.887 l 11.305 -66.887 l 11.664 -67.031 l 11.809
 -67.176 l 11.953 -67.535 l 11.953 -68.039 l 11.809 -68.398 l 11.664 -68.543
 l 11.305 -68.762 l 9.938 -68.762 l S Q
q 1 0 0 1 0 166.467072 cm
13.68 -70.488 m 14.398 -70.488 l 14.762 -70.273 l 14.902 -70.129 l 15.266
 -69.625 l 15.406 -68.902 l 15.406 -67.535 l 15.266 -67.176 l 15.047 -67.031
 l 14.762 -66.887 l 14.039 -66.887 l 13.68 -67.031 l 13.535 -67.176 l 13.391
 -67.535 l 13.391 -68.398 l 13.535 -68.762 l 13.68 -68.902 l 14.039 -69.121
 l 14.762 -69.121 l 15.047 -68.902 l 15.266 -68.762 l 15.406 -68.398 l S Q
q 1 0 0 1 0 166.467072 cm
24.336 -70.488 m 22.609 -70.488 l 22.465 -72.145 l 22.609 -72 l 22.969 
-71.855 l 23.832 -71.855 l 24.121 -72 l 24.336 -72.145 l 24.48 -72.504 l
 24.48 -73.367 l 24.336 -73.727 l 24.121 -73.871 l 23.832 -74.09 l 22.969
 -74.09 l 22.609 -73.871 l 22.465 -73.727 l S Q
q 1 0 0 1 0 166.467072 cm
26.062 -74.09 m 26.062 -70.488 l S Q
q 1 0 0 1 0 166.467072 cm
28.078 -74.09 m 26.566 -72 l S Q
q 1 0 0 1 0 166.467072 cm
28.078 -70.488 m 26.062 -72.504 l S Q
q 1 0 0 1 0 166.467072 cm
31.535 -74.09 m 29.52 -74.09 l S Q
q 1 0 0 1 0 166.467072 cm
30.527 -74.09 m 30.527 -70.488 l 30.168 -70.992 l 29.809 -71.352 l 29.52
 -71.496 l S Q
0.517647 0 0 rg
0.72 w
q 1 0 0 1 0 166.467072 cm
19.801 -76.969 14.398 -5.758 re S Q
0.432 w
q 1 0 0 1 0 166.467072 cm
34.199 -79.848 m 37.801 -79.848 l S Q
q 1 0 0 1 0 166.467072 cm
19.801 -79.848 m 16.199 -79.848 l S Q
0 0.517647 0.517647 rg
q 1 0 0 1 0 166.467072 cm
10.223 -77.688 m 9.07 -75.961 l S Q
q 1 0 0 1 0 166.467072 cm
8.207 -77.688 m 8.207 -74.09 l 9.574 -74.09 l 9.938 -74.23 l 10.078 -74.375
 l 10.223 -74.734 l 10.223 -75.238 l 10.078 -75.602 l 9.938 -75.742 l 9.574
 -75.961 l 8.207 -75.961 l S Q
q 1 0 0 1 0 166.467072 cm
13.68 -77.688 m 11.664 -77.688 l S Q
q 1 0 0 1 0 166.467072 cm
12.672 -77.688 m 12.672 -74.09 l 12.312 -74.594 l 11.953 -74.953 l 11.664
 -75.098 l S Q
q 1 0 0 1 0 166.467072 cm
15.91 -74.09 m 16.273 -74.09 l 16.633 -74.23 l 16.777 -74.375 l 16.992 
-74.734 l 17.137 -75.457 l 17.137 -76.32 l 16.992 -76.969 l 16.777 -77.328
 l 16.633 -77.473 l 16.273 -77.688 l 15.91 -77.688 l 15.625 -77.473 l 15.406
 -77.328 l 15.266 -76.969 l 15.121 -76.32 l 15.121 -75.457 l 15.266 -74.734
 l 15.406 -74.375 l 15.625 -74.23 l 15.91 -74.09 l S Q
q 1 0 0 1 0 166.467072 cm
24.48 -81.289 m 22.465 -81.289 l S Q
q 1 0 0 1 0 166.467072 cm
23.473 -81.289 m 23.473 -77.688 l 23.113 -78.191 l 22.754 -78.551 l 22.465
 -78.695 l S Q
q 1 0 0 1 0 166.467072 cm
26.062 -81.289 m 26.062 -77.688 l S Q
q 1 0 0 1 0 166.467072 cm
28.078 -81.289 m 26.566 -79.199 l S Q
q 1 0 0 1 0 166.467072 cm
28.078 -77.688 m 26.062 -79.703 l S Q
q 1 0 0 1 0 166.467072 cm
29.52 -77.977 m 29.664 -77.832 l 30.023 -77.688 l 30.887 -77.688 l 31.176
 -77.832 l 31.391 -77.977 l 31.535 -78.336 l 31.535 -78.695 l 31.391 -79.199
 l 29.305 -81.289 l 31.535 -81.289 l S Q
0 g
q 1 0 0 1 0 166.467072 cm
167.328 -28.512 m 165.887 -26.496 l S Q
q 1 0 0 1 0 166.467072 cm
164.809 -28.512 m 164.809 -24.191 l 166.465 -24.191 l 166.895 -24.406 l
 167.113 -24.625 l 167.328 -25.055 l 167.328 -25.633 l 167.113 -26.062 l
 166.895 -26.281 l 166.465 -26.496 l 164.809 -26.496 l S Q
q 1 0 0 1 0 166.467072 cm
169.129 -26.855 m 172.441 -26.855 l S Q
q 1 0 0 1 0 166.467072 cm
170.785 -28.512 m 170.785 -25.199 l S Q
q 1 0 0 1 0 166.467072 cm
167.328 -35.711 m 165.887 -33.695 l S Q
q 1 0 0 1 0 166.467072 cm
164.809 -35.711 m 164.809 -31.391 l 166.465 -31.391 l 166.895 -31.609 l
 167.113 -31.824 l 167.328 -32.258 l 167.328 -32.832 l 167.113 -33.266 l
 166.895 -33.48 l 166.465 -33.695 l 164.809 -33.695 l S Q
q 1 0 0 1 0 166.467072 cm
169.129 -34.055 m 172.441 -34.055 l S Q
0.517647 0 0 rg
q 1 0 0 1 0 166.467072 cm
63 -25.848 57.602 -93.602 re S Q
q 1 0 0 1 0 166.467072 cm
63 -58.246 m 41.398 -58.246 l S Q
0 0.517647 0.517647 rg
q 1 0 0 1 0 166.467072 cm
66.527 -55.871 m 69.406 -60.191 l S Q
q 1 0 0 1 0 166.467072 cm
69.406 -55.871 m 66.527 -60.191 l S Q
q 1 0 0 1 0 166.467072 cm
72.863 -57.312 m 72.863 -60.191 l S Q
q 1 0 0 1 0 166.467072 cm
71.855 -55.656 m 70.777 -58.754 l 73.512 -58.754 l S Q
0.517647 0 0 rg
q 1 0 0 1 0 166.467072 cm
53.496 -57.312 m 50.977 -57.312 l S Q
q 1 0 0 1 0 166.467072 cm
52.273 -57.312 m 52.273 -52.992 l 51.84 -53.641 l 51.406 -54 l 50.977 -54.215
 l S Q
q 1 0 0 1 0 166.467072 cm
63 -72.648 m 41.398 -72.648 l S Q
0 0.517647 0.517647 rg
q 1 0 0 1 0 166.467072 cm
66.527 -70.273 m 69.406 -74.594 l S Q
q 1 0 0 1 0 166.467072 cm
69.406 -70.273 m 66.527 -74.594 l S Q
q 1 0 0 1 0 166.467072 cm
72.863 -70.273 m 72.07 -70.273 l 71.641 -70.488 l 71.426 -70.703 l 70.992
 -71.281 l 70.777 -72.145 l 70.777 -73.801 l 70.992 -74.16 l 71.207 -74.375
 l 71.641 -74.594 l 72.434 -74.594 l 72.863 -74.375 l 73.078 -74.16 l 73.297
 -73.801 l 73.297 -72.719 l 73.078 -72.359 l 72.863 -72.145 l 72.434 -71.93
 l 71.641 -71.93 l 71.207 -72.145 l 70.992 -72.359 l 70.777 -72.719 l S Q
0.517647 0 0 rg
q 1 0 0 1 0 166.467072 cm
50.977 -67.824 m 51.191 -67.609 l 51.625 -67.391 l 52.633 -67.391 l 53.062
 -67.609 l 53.281 -67.824 l 53.496 -68.258 l 53.496 -68.617 l 53.281 -69.266
 l 50.832 -71.711 l 53.496 -71.711 l S Q
q 1 0 0 1 0 166.467072 cm
120.602 -29.449 m 142.199 -29.449 l S Q
0 0.517647 0.517647 rg
q 1 0 0 1 0 166.467072 cm
114.266 -27.07 m 117.145 -31.391 l S Q
q 1 0 0 1 0 166.467072 cm
117.145 -27.07 m 114.266 -31.391 l S Q
0.517647 0 0 rg
q 1 0 0 1 0 166.467072 cm
130.031 -24.191 m 132.695 -24.191 l 131.258 -25.848 l 131.832 -25.848 l
 132.266 -26.062 l 132.48 -26.281 l 132.695 -26.641 l 132.695 -27.719 l 
132.48 -28.078 l 132.266 -28.297 l 131.832 -28.512 l 130.609 -28.512 l 130.176
 -28.297 l 130.031 -28.078 l S Q
q 1 0 0 1 0 166.467072 cm
63 -79.848 m 41.398 -79.848 l S Q
0 0.517647 0.517647 rg
q 1 0 0 1 0 166.467072 cm
66.527 -77.473 m 69.406 -81.793 l S Q
q 1 0 0 1 0 166.467072 cm
69.406 -77.473 m 66.527 -81.793 l S Q
q 1 0 0 1 0 166.467072 cm
70.633 -77.473 m 73.512 -77.473 l 71.641 -81.793 l S Q
0.517647 0 0 rg
q 1 0 0 1 0 166.467072 cm
53.062 -76.031 m 53.062 -78.91 l S Q
q 1 0 0 1 0 166.467072 cm
52.055 -74.375 m 50.977 -77.473 l 53.711 -77.473 l S Q
q 1 0 0 1 0 166.467072 cm
63 -65.449 m 41.398 -65.449 l S Q
0 0.517647 0.517647 rg
q 1 0 0 1 0 166.467072 cm
66.527 -63.07 m 69.406 -67.391 l S Q
q 1 0 0 1 0 166.467072 cm
69.406 -63.07 m 66.527 -67.391 l S Q
q 1 0 0 1 0 166.467072 cm
73.078 -63.07 m 70.992 -63.07 l 70.777 -65.16 l 70.992 -64.945 l 71.426
 -64.727 l 72.434 -64.727 l 72.863 -64.945 l 73.078 -65.16 l 73.297 -65.52
 l 73.297 -66.602 l 73.078 -66.961 l 72.863 -67.176 l 72.434 -67.391 l 71.426
 -67.391 l 70.992 -67.176 l 70.777 -66.961 l S Q
0.517647 0 0 rg
q 1 0 0 1 0 166.467072 cm
53.281 -60.191 m 51.191 -60.191 l 50.977 -62.281 l 51.191 -62.062 l 51.625
 -61.848 l 52.633 -61.848 l 53.062 -62.062 l 53.281 -62.281 l 53.496 -62.641
 l 53.496 -63.719 l 53.281 -64.078 l 53.062 -64.297 l 52.633 -64.512 l 51.625
 -64.512 l 51.191 -64.297 l 50.977 -64.078 l S Q
q 1 0 0 1 0 166.467072 cm
63 -94.246 m 41.398 -94.246 l S Q
0 0.517647 0.517647 rg
q 1 0 0 1 0 166.467072 cm
66.887 -96.191 m 66.887 -91.871 l S Q
q 1 0 0 1 0 166.467072 cm
68.977 -93.312 m 68.977 -96.191 l S Q
q 1 0 0 1 0 166.467072 cm
68.977 -93.742 m 69.191 -93.527 l 69.625 -93.312 l 70.199 -93.312 l 70.633
 -93.527 l 70.848 -93.961 l 70.848 -96.191 l S Q
q 1 0 0 1 0 166.467072 cm
72.863 -96.191 m 72.863 -91.871 l S Q
q 1 0 0 1 0 166.467072 cm
74.734 -96.191 m 74.734 -93.961 l 74.52 -93.527 l 74.09 -93.312 l 73.512
 -93.312 l 73.078 -93.527 l 72.863 -93.742 l S Q
0.517647 0 0 rg
q 1 0 0 1 0 166.467072 cm
53.062 -88.992 m 52.273 -88.992 l 51.84 -89.207 l 51.625 -89.426 l 51.191
 -90 l 50.977 -90.863 l 50.977 -92.52 l 51.191 -92.879 l 51.406 -93.098 
l 51.84 -93.312 l 52.633 -93.312 l 53.062 -93.098 l 53.281 -92.879 l 53.496
 -92.52 l 53.496 -91.441 l 53.281 -91.078 l 53.062 -90.863 l 52.633 -90.648
 l 51.84 -90.648 l 51.406 -90.863 l 51.191 -91.078 l 50.977 -91.441 l S Q
q 1 0 0 1 0 166.467072 cm
120.602 -108.648 m 142.199 -108.648 l S Q
0 0.517647 0.517647 rg
q 1 0 0 1 0 166.467072 cm
106.703 -106.273 m 108.145 -110.594 l 109.586 -106.273 l S Q
q 1 0 0 1 0 166.467072 cm
110.953 -108.359 m 112.391 -108.359 l S Q
q 1 0 0 1 0 166.467072 cm
113.039 -110.594 m 110.953 -110.594 l 110.953 -106.273 l 113.039 -106.273
 l S Q
q 1 0 0 1 0 166.467072 cm
114.84 -108.359 m 116.281 -108.359 l S Q
q 1 0 0 1 0 166.467072 cm
116.93 -110.594 m 114.84 -110.594 l 114.84 -106.273 l 116.93 -106.273 l
 S Q
0.517647 0 0 rg
q 1 0 0 1 0 166.467072 cm
130.031 -103.391 m 132.91 -103.391 l 131.039 -107.711 l S Q
q 1 0 0 1 0 166.467072 cm
91.801 -119.449 m 91.801 -141.047 l S Q
0 0.517647 0.517647 rg
q 1 0 0 1 0 166.467072 cm
89.426 -116.137 m 93.742 -114.695 l 89.426 -113.258 l S Q
q 1 0 0 1 0 166.467072 cm
93.527 -112.105 m 93.742 -111.457 l 93.742 -110.449 l 93.527 -110.016 l
 93.312 -109.801 l 92.953 -109.586 l 92.52 -109.586 l 92.09 -109.801 l 91.871
 -110.016 l 91.727 -110.449 l 91.512 -111.238 l 91.297 -111.672 l 91.078
 -111.887 l 90.648 -112.105 l 90.289 -112.105 l 89.855 -111.887 l 89.641
 -111.672 l 89.426 -111.238 l 89.426 -110.23 l 89.641 -109.586 l S Q
q 1 0 0 1 0 166.467072 cm
93.527 -108 m 93.742 -107.352 l 93.742 -106.344 l 93.527 -105.91 l 93.312
 -105.695 l 92.953 -105.48 l 92.52 -105.48 l 92.09 -105.695 l 91.871 -105.91
 l 91.727 -106.344 l 91.512 -107.137 l 91.297 -107.566 l 91.078 -107.785
 l 90.648 -108 l 90.289 -108 l 89.855 -107.785 l 89.641 -107.566 l 89.426
 -107.137 l 89.426 -106.129 l 89.641 -105.48 l S Q
0.517647 0 0 rg
q 1 0 0 1 0 166.467072 cm
88.414 -130.609 m 88.199 -131.039 l 87.984 -131.258 l 87.551 -131.473 l
 87.406 -131.473 l 86.977 -131.258 l 86.762 -131.039 l 86.543 -130.609 l
 86.543 -129.816 l 86.762 -129.383 l 86.977 -129.168 l 87.406 -128.953 l
 87.551 -128.953 l 87.984 -129.168 l 88.199 -129.383 l 88.414 -129.816 l
 88.414 -130.609 l 88.633 -131.039 l 88.848 -131.258 l 89.207 -131.473 l
 90.07 -131.473 l 90.434 -131.258 l 90.648 -131.039 l 90.863 -130.609 l 
90.863 -129.816 l 90.648 -129.383 l 90.434 -129.168 l 90.07 -128.953 l 89.207
 -128.953 l 88.848 -129.168 l 88.633 -129.383 l 88.414 -129.816 l S Q
q 1 0 0 1 0 166.467072 cm
63 -115.848 m 41.398 -115.848 l S Q
0 0.517647 0.517647 rg
q 1 0 0 1 0 166.467072 cm
69.406 -117.359 m 69.191 -117.574 l 68.543 -117.793 l 68.113 -117.793 l
 67.535 -117.574 l 67.105 -117.215 l 66.887 -116.785 l 66.672 -115.922 l
 66.672 -115.344 l 66.887 -114.48 l 67.105 -114.121 l 67.535 -113.688 l 
68.113 -113.473 l 68.543 -113.473 l 69.191 -113.688 l 69.406 -113.902 l S Q
0.517647 0 0 rg
q 1 0 0 1 0 166.467072 cm
51.406 -114.91 m 52.273 -114.91 l 52.633 -114.695 l 52.848 -114.48 l 53.281
 -113.902 l 53.496 -113.039 l 53.496 -111.457 l 53.281 -111.023 l 53.062
 -110.809 l 52.633 -110.594 l 51.84 -110.594 l 51.406 -110.809 l 51.191 
-111.023 l 50.977 -111.457 l 50.977 -112.465 l 51.191 -112.895 l 51.406 
-113.039 l 51.84 -113.258 l 52.633 -113.258 l 53.062 -113.039 l 53.281 -112.895
 l 53.496 -112.465 l S Q
q 1 0 0 1 0 166.467072 cm
63 -108.648 m 41.398 -108.648 l S Q
0 0.517647 0.517647 rg
q 1 0 0 1 0 166.467072 cm
68.328 -108.359 m 68.977 -108.574 l 69.191 -108.719 l 69.406 -109.152 l
 69.406 -109.801 l 69.191 -110.16 l 68.977 -110.375 l 68.543 -110.594 l 
66.887 -110.594 l 66.887 -106.273 l 68.328 -106.273 l 68.762 -106.488 l 
68.977 -106.703 l 69.191 -107.137 l 69.191 -107.496 l 68.977 -107.93 l 68.762
 -108.145 l 68.328 -108.359 l 66.887 -108.359 l S Q
0.517647 0 0 rg
q 1 0 0 1 0 166.467072 cm
51.406 -107.711 m 48.887 -107.711 l S Q
q 1 0 0 1 0 166.467072 cm
50.184 -107.711 m 50.184 -103.391 l 49.754 -104.039 l 49.32 -104.398 l 
48.887 -104.617 l S Q
q 1 0 0 1 0 166.467072 cm
54.07 -103.391 m 54.434 -103.391 l 54.863 -103.609 l 55.078 -103.824 l 
55.297 -104.258 l 55.512 -105.047 l 55.512 -106.055 l 55.297 -106.922 l 
55.078 -107.281 l 54.863 -107.496 l 54.434 -107.711 l 54.07 -107.711 l 53.641
 -107.496 l 53.426 -107.281 l 53.207 -106.922 l 52.992 -106.055 l 52.992
 -105.047 l 53.207 -104.258 l 53.426 -103.824 l 53.641 -103.609 l 54.07 
-103.391 l S Q
q 1 0 0 1 0 166.467072 cm
63 -101.449 m 41.398 -101.449 l S Q
0 0.517647 0.517647 rg
q 1 0 0 1 0 166.467072 cm
66.672 -102.168 m 68.762 -102.168 l S Q
q 1 0 0 1 0 166.467072 cm
66.312 -103.391 m 67.754 -99.07 l 69.191 -103.391 l S Q
0.517647 0 0 rg
q 1 0 0 1 0 166.467072 cm
51.406 -100.512 m 48.887 -100.512 l S Q
q 1 0 0 1 0 166.467072 cm
50.184 -100.512 m 50.184 -96.191 l 49.754 -96.84 l 49.32 -97.199 l 48.887
 -97.414 l S Q
q 1 0 0 1 0 166.467072 cm
55.512 -100.512 m 52.992 -100.512 l S Q
q 1 0 0 1 0 166.467072 cm
54.289 -100.512 m 54.289 -96.191 l 53.855 -96.84 l 53.426 -97.199 l 52.992
 -97.414 l S Q
q 1 0 0 1 0 166.467072 cm
63 -51.047 m 41.398 -51.047 l S Q
0 0.517647 0.517647 rg
q 1 0 0 1 0 166.467072 cm
66.527 -48.672 m 69.406 -52.992 l S Q
q 1 0 0 1 0 166.467072 cm
69.406 -48.672 m 66.527 -52.992 l S Q
q 1 0 0 1 0 166.467072 cm
70.633 -48.672 m 73.297 -48.672 l 71.855 -50.328 l 72.434 -50.328 l 72.863
 -50.543 l 73.078 -50.762 l 73.297 -51.121 l 73.297 -52.199 l 73.078 -52.559
 l 72.863 -52.777 l 72.434 -52.992 l 71.207 -52.992 l 70.777 -52.777 l 70.633
 -52.559 l S Q
0.517647 0 0 rg
q 1 0 0 1 0 166.467072 cm
51.406 -50.113 m 48.887 -50.113 l S Q
q 1 0 0 1 0 166.467072 cm
50.184 -50.113 m 50.184 -45.793 l 49.754 -46.441 l 49.32 -46.801 l 48.887
 -47.016 l S Q
q 1 0 0 1 0 166.467072 cm
52.992 -46.223 m 53.207 -46.008 l 53.641 -45.793 l 54.648 -45.793 l 55.078
 -46.008 l 55.297 -46.223 l 55.512 -46.656 l 55.512 -47.016 l 55.297 -47.664
 l 52.848 -50.113 l 55.512 -50.113 l S Q
q 1 0 0 1 0 166.467072 cm
63 -29.449 m 41.398 -29.449 l S Q
0 0.517647 0.517647 rg
q 1 0 0 1 0 166.467072 cm
66.527 -27.07 m 69.406 -31.391 l S Q
q 1 0 0 1 0 166.467072 cm
69.406 -27.07 m 66.527 -31.391 l S Q
q 1 0 0 1 0 166.467072 cm
71.855 -27.07 m 72.215 -27.07 l 72.648 -27.289 l 72.863 -27.504 l 73.078
 -27.938 l 73.297 -28.727 l 73.297 -29.734 l 73.078 -30.602 l 72.863 -30.961
 l 72.648 -31.176 l 72.215 -31.391 l 71.855 -31.391 l 71.426 -31.176 l 71.207
 -30.961 l 70.992 -30.602 l 70.777 -29.734 l 70.777 -28.727 l 70.992 -27.938
 l 71.207 -27.504 l 71.426 -27.289 l 71.855 -27.07 l S Q
0.517647 0 0 rg
q 1 0 0 1 0 166.467072 cm
51.406 -28.512 m 48.887 -28.512 l S Q
q 1 0 0 1 0 166.467072 cm
50.184 -28.512 m 50.184 -24.191 l 49.754 -24.84 l 49.32 -25.199 l 48.887
 -25.414 l S Q
q 1 0 0 1 0 166.467072 cm
52.848 -24.191 m 55.512 -24.191 l 54.07 -25.848 l 54.648 -25.848 l 55.078
 -26.062 l 55.297 -26.281 l 55.512 -26.641 l 55.512 -27.719 l 55.297 -28.078
 l 55.078 -28.297 l 54.648 -28.512 l 53.426 -28.512 l 52.992 -28.297 l 52.848
 -28.078 l S Q
q 1 0 0 1 0 166.467072 cm
63 -36.648 m 41.398 -36.648 l S Q
0 0.517647 0.517647 rg
q 1 0 0 1 0 166.467072 cm
66.527 -34.273 m 69.406 -38.594 l S Q
q 1 0 0 1 0 166.467072 cm
69.406 -34.273 m 66.527 -38.594 l S Q
q 1 0 0 1 0 166.467072 cm
73.297 -38.594 m 70.777 -38.594 l S Q
q 1 0 0 1 0 166.467072 cm
72.07 -38.594 m 72.07 -34.273 l 71.641 -34.922 l 71.207 -35.281 l 70.777
 -35.496 l S Q
0.517647 0 0 rg
q 1 0 0 1 0 166.467072 cm
51.406 -35.711 m 48.887 -35.711 l S Q
q 1 0 0 1 0 166.467072 cm
50.184 -35.711 m 50.184 -31.391 l 49.754 -32.039 l 49.32 -32.398 l 48.887
 -32.617 l S Q
q 1 0 0 1 0 166.467072 cm
55.078 -32.832 m 55.078 -35.711 l S Q
q 1 0 0 1 0 166.467072 cm
54.07 -31.176 m 52.992 -34.273 l 55.727 -34.273 l S Q
q 1 0 0 1 0 166.467072 cm
63 -43.848 m 41.398 -43.848 l S Q
0 0.517647 0.517647 rg
q 1 0 0 1 0 166.467072 cm
66.527 -41.473 m 69.406 -45.793 l S Q
q 1 0 0 1 0 166.467072 cm
69.406 -41.473 m 66.527 -45.793 l S Q
q 1 0 0 1 0 166.467072 cm
70.777 -41.902 m 70.992 -41.688 l 71.426 -41.473 l 72.434 -41.473 l 72.863
 -41.688 l 73.078 -41.902 l 73.297 -42.336 l 73.297 -42.695 l 73.078 -43.344
 l 70.633 -45.793 l 73.297 -45.793 l S Q
0.517647 0 0 rg
q 1 0 0 1 0 166.467072 cm
51.406 -42.91 m 48.887 -42.91 l S Q
q 1 0 0 1 0 166.467072 cm
50.184 -42.91 m 50.184 -38.594 l 49.754 -39.238 l 49.32 -39.602 l 48.887
 -39.816 l S Q
q 1 0 0 1 0 166.467072 cm
55.297 -38.594 m 53.207 -38.594 l 52.992 -40.68 l 53.207 -40.465 l 53.641
 -40.246 l 54.648 -40.246 l 55.078 -40.465 l 55.297 -40.68 l 55.512 -41.039
 l 55.512 -42.121 l 55.297 -42.48 l 55.078 -42.695 l 54.648 -42.91 l 53.641
 -42.91 l 53.207 -42.695 l 52.992 -42.48 l S Q
q 1 0 0 1 0 166.467072 cm
91.801 -25.848 m 91.801 -4.246 l S Q
0 0.517647 0.517647 rg
q 1 0 0 1 0 166.467072 cm
89.426 -40.609 m 93.742 -39.168 l 89.426 -37.727 l S Q
q 1 0 0 1 0 166.467072 cm
93.742 -36.359 m 89.426 -36.359 l 89.426 -35.281 l 89.641 -34.703 l 90.07
 -34.273 l 90.434 -34.055 l 91.297 -33.84 l 91.871 -33.84 l 92.734 -34.055
 l 93.168 -34.273 l 93.527 -34.703 l 93.742 -35.281 l 93.742 -36.359 l S Q
q 1 0 0 1 0 166.467072 cm
93.742 -32.039 m 89.426 -32.039 l 89.426 -30.961 l 89.641 -30.383 l 90.07
 -29.953 l 90.434 -29.734 l 91.297 -29.52 l 91.871 -29.52 l 92.734 -29.734
 l 93.168 -29.953 l 93.527 -30.383 l 93.742 -30.961 l 93.742 -32.039 l S Q
0.517647 0 0 rg
q 1 0 0 1 0 166.467072 cm
90.863 -15.84 m 90.863 -18.359 l S Q
q 1 0 0 1 0 166.467072 cm
90.863 -17.062 m 86.543 -17.062 l 87.191 -17.496 l 87.551 -17.93 l 87.77
 -18.359 l S Q
q 1 0 0 1 0 166.467072 cm
86.543 -12.168 m 86.543 -12.961 l 86.762 -13.391 l 86.977 -13.609 l 87.551
 -14.039 l 88.414 -14.258 l 90.07 -14.258 l 90.434 -14.039 l 90.648 -13.824
 l 90.863 -13.391 l 90.863 -12.602 l 90.648 -12.168 l 90.434 -11.953 l 90.07
 -11.734 l 88.992 -11.734 l 88.633 -11.953 l 88.414 -12.168 l 88.199 -12.602
 l 88.199 -13.391 l 88.414 -13.824 l 88.633 -14.039 l 88.992 -14.258 l S Q
0 0.517647 0.517647 rg
q 1 0 0 1 0 166.467072 cm
95.688 -70.055 m 95.688 -73.586 l 95.902 -73.945 l 96.121 -74.16 l 96.551
 -74.375 l 97.344 -74.375 l 97.777 -74.16 l 97.992 -73.945 l 98.207 -73.586
 l 98.207 -70.055 l S Q
q 1 0 0 1 0 166.467072 cm
102.312 -70.055 m 100.223 -70.055 l 100.008 -72.145 l 100.223 -71.93 l 
100.656 -71.711 l 101.664 -71.711 l 102.098 -71.93 l 102.312 -72.145 l 102.527
 -72.504 l 102.527 -73.586 l 102.312 -73.945 l 102.098 -74.16 l 101.664 
-74.375 l 100.656 -74.375 l 100.223 -74.16 l 100.008 -73.945 l S Q
q 1 0 0 1 0 166.467072 cm
93.672 -85.895 m 93.672 -88.777 l S Q
q 1 0 0 1 0 166.467072 cm
92.664 -84.238 m 91.586 -87.336 l 94.32 -87.336 l S Q
q 1 0 0 1 0 166.467072 cm
96.77 -84.457 m 97.129 -84.457 l 97.559 -84.672 l 97.777 -84.887 l 97.992
 -85.32 l 98.207 -86.113 l 98.207 -87.121 l 97.992 -87.984 l 97.777 -88.344
 l 97.559 -88.559 l 97.129 -88.777 l 96.77 -88.777 l 96.336 -88.559 l 96.121
 -88.344 l 95.902 -87.984 l 95.688 -87.121 l 95.688 -86.113 l 95.902 -85.32
 l 96.121 -84.887 l 96.336 -84.672 l 96.77 -84.457 l S Q
q 1 0 0 1 0 166.467072 cm
102.098 -84.457 m 100.008 -84.457 l 99.793 -86.543 l 100.008 -86.328 l 
100.441 -86.113 l 101.449 -86.113 l 101.879 -86.328 l 102.098 -86.543 l 
102.312 -86.902 l 102.312 -87.984 l 102.098 -88.344 l 101.879 -88.559 l 
101.449 -88.777 l 100.441 -88.777 l 100.008 -88.559 l 99.793 -88.344 l S Q
q 1 0 0 1 0 166.467072 cm
106.414 -88.777 m 103.895 -88.777 l S Q
q 1 0 0 1 0 166.467072 cm
105.191 -88.777 m 105.191 -84.457 l 104.762 -85.105 l 104.328 -85.465 l
 103.895 -85.68 l S Q
0.517647 0 0 rg
q 1 0 0 1 0 166.467072 cm
91.801 -144.648 m 91.801 -148.246 l 95.398 -148.246 l 91.801 -151.848 l
 88.199 -148.246 l 91.801 -148.246 l S Q
0 0.517647 0.517647 rg
q 1 0 0 1 0 166.467072 cm
87.551 -153.434 m 87.191 -153.289 l 86.688 -153.289 l 86.184 -153.434 l
 85.824 -153.793 l 85.68 -154.152 l 85.535 -154.801 l 85.535 -155.305 l 
85.68 -156.023 l 85.824 -156.312 l 86.184 -156.672 l 86.688 -156.887 l 87.047
 -156.887 l 87.551 -156.672 l 87.695 -156.527 l 87.695 -155.305 l 87.047
 -155.305 l S Q
q 1 0 0 1 0 166.467072 cm
89.281 -156.887 m 89.281 -153.289 l 91.297 -156.887 l 91.297 -153.289 l
 S Q
q 1 0 0 1 0 166.467072 cm
93.023 -156.887 m 93.023 -153.289 l 93.887 -153.289 l 94.391 -153.434 l
 94.754 -153.793 l 94.895 -154.152 l 95.039 -154.801 l 95.039 -155.305 l
 94.895 -156.023 l 94.754 -156.312 l 94.391 -156.672 l 93.887 -156.887 l
 93.023 -156.887 l S Q
q 1 0 0 1 0 166.467072 cm
96.48 -155.809 m 98.137 -155.809 l S Q
q 1 0 0 1 0 166.467072 cm
96.121 -156.887 m 97.273 -153.289 l 98.496 -156.887 l S Q
0.517647 0 0 rg
q 1 0 0 1 0 166.467072 cm
124.199 -4.535 m 127.512 -4.535 l S Q
q 1 0 0 1 0 166.467072 cm
125.855 -6.191 m 125.855 -2.879 l S Q
q 1 0 0 1 0 166.467072 cm
131.617 -1.871 m 129.527 -1.871 l 129.312 -3.961 l 129.527 -3.742 l 129.961
 -3.527 l 130.969 -3.527 l 131.398 -3.742 l 131.617 -3.961 l 131.832 -4.32
 l 131.832 -5.398 l 131.617 -5.762 l 131.398 -5.977 l 130.969 -6.191 l 129.961
 -6.191 l 129.527 -5.977 l 129.312 -5.762 l S Q
q 1 0 0 1 0 166.467072 cm
133.414 -4.969 m 135.504 -4.969 l S Q
q 1 0 0 1 0 166.467072 cm
133.055 -6.191 m 134.496 -1.871 l 135.938 -6.191 l S Q
0.72 w
q 1 0 0 1 0 166.467072 cm
120.602 -4.246 m 122.762 -8.137 l 137.953 -8.137 l 137.953 -0.359 l 122.762
 -0.359 l 120.602 -4.246 l S Q
0.432 w
q 1 0 0 1 0 166.467072 cm
181.801 -108.938 m 185.113 -108.938 l S Q
q 1 0 0 1 0 166.467072 cm
189.215 -106.273 m 187.129 -106.273 l 186.91 -108.359 l 187.129 -108.145
 l 187.559 -107.93 l 188.566 -107.93 l 189 -108.145 l 189.215 -108.359 l
 189.434 -108.719 l 189.434 -109.801 l 189.215 -110.16 l 189 -110.375 l 
188.566 -110.594 l 187.559 -110.594 l 187.129 -110.375 l 186.91 -110.16 
l S Q
q 1 0 0 1 0 166.467072 cm
191.016 -109.367 m 193.105 -109.367 l S Q
q 1 0 0 1 0 166.467072 cm
190.656 -110.594 m 192.098 -106.273 l 193.535 -110.594 l S Q
0.72 w
q 1 0 0 1 0 166.467072 cm
178.199 -108.648 m 180.359 -112.535 l 195.551 -112.535 l 195.551 -104.762
 l 180.359 -104.762 l 178.199 -108.648 l S Q
0.517647 0.517647 0 rg
0.432 w
q 1 0 0 1 0 166.467072 cm
18.648 -102.168 m 20.734 -102.168 l S Q
q 1 0 0 1 0 166.467072 cm
18.289 -103.391 m 19.727 -99.07 l 21.168 -103.391 l S Q
0.72 w
q 1 0 0 1 0 166.467072 cm
27 -101.449 m 24.84 -99.289 l 22.68 -99.289 l 22.68 -103.609 l 24.84 -103.609
 l 27 -101.449 l S Q
0.432 w
q 1 0 0 1 0 166.467072 cm
19.656 -108.359 m 20.305 -108.574 l 20.52 -108.719 l 20.734 -109.152 l 
20.734 -109.801 l 20.52 -110.16 l 20.305 -110.375 l 19.871 -110.594 l 18.215
 -110.594 l 18.215 -106.273 l 19.656 -106.273 l 20.09 -106.488 l 20.305 
-106.703 l 20.52 -107.137 l 20.52 -107.496 l 20.305 -107.93 l 20.09 -108.145
 l 19.656 -108.359 l 18.215 -108.359 l S Q
0.72 w
q 1 0 0 1 0 166.467072 cm
27 -108.648 m 24.84 -106.488 l 22.68 -106.488 l 22.68 -110.809 l 24.84 
-110.809 l 27 -108.648 l S Q
0.432 w
q 1 0 0 1 0 166.467072 cm
20.734 -117.359 m 20.52 -117.574 l 19.871 -117.793 l 19.441 -117.793 l 
18.863 -117.574 l 18.434 -117.215 l 18.215 -116.785 l 18 -115.922 l 18 -115.344
 l 18.215 -114.48 l 18.434 -114.121 l 18.863 -113.688 l 19.441 -113.473 
l 19.871 -113.473 l 20.52 -113.688 l 20.734 -113.902 l S Q
0.72 w
q 1 0 0 1 0 166.467072 cm
27 -115.848 m 24.84 -113.688 l 22.68 -113.688 l 22.68 -118.008 l 24.84 
-118.008 l 27 -115.848 l S Q
0.432 w
q 1 0 0 1 0 166.467072 cm
18.648 -93.961 m 20.09 -93.961 l S Q
q 1 0 0 1 0 166.467072 cm
20.734 -96.191 m 18.648 -96.191 l 18.648 -91.871 l 20.734 -91.871 l S Q
0.72 w
q 1 0 0 1 0 166.467072 cm
27 -94.246 m 24.84 -92.09 l 22.68 -92.09 l 22.68 -96.406 l 24.84 -96.406
 l 27 -94.246 l S Q
0 0.517647 0 rg
0.432 w
q 1 0 0 1 0 166.467072 cm
27 -94.246 m 41.398 -94.246 l S Q
q 1 0 0 1 0 166.467072 cm
91.801 -141.047 m 91.801 -144.648 l S Q
q 1 0 0 1 0 166.467072 cm
91.801 -4.246 m 120.602 -4.246 l S Q
q 1 0 0 1 0 166.467072 cm
142.199 -108.648 m 178.199 -108.648 l S Q
q 1 0 0 1 0 166.467072 cm
41.398 -115.848 m 27 -115.848 l S Q
q 1 0 0 1 0 166.467072 cm
41.398 -108.648 m 27 -108.648 l S Q
q 1 0 0 1 0 166.467072 cm
41.398 -101.449 m 27 -101.449 l S Q
0.359 86.619 m 0.359 87.412 1.004 88.061 1.801 88.061 c 2.594 88.061 3.238
 87.412 3.238 86.619 c 3.238 85.823 2.594 85.178 1.801 85.178 c 1.004 85.178
 0.359 85.823 0.359 86.619 c h
0.359 86.619 m f
0.72 w
q 1 0 0 1 0 166.467072 cm
0.359 -79.848 m 0.359 -79.055 1.004 -78.406 1.801 -78.406 c 2.594 -78.406
 3.238 -79.055 3.238 -79.848 c 3.238 -80.645 2.594 -81.289 1.801 -81.289
 c 1.004 -81.289 0.359 -80.645 0.359 -79.848 c h
0.359 -79.848 m S Q
0.432 w
q 1 0 0 1 0 166.467072 cm
153 -36.648 m 163.801 -36.648 l S Q
q 1 0 0 1 0 166.467072 cm
153 -166.246 m 153 -36.648 l S Q
q 1 0 0 1 0 166.467072 cm
1.801 -166.246 m 153 -166.246 l S Q
q 1 0 0 1 0 166.467072 cm
142.199 -29.449 m 163.801 -29.449 l S Q
0.359 129.819 m 0.359 130.616 1.004 131.26 1.801 131.26 c 2.594 131.26 
3.238 130.616 3.238 129.819 c 3.238 129.026 2.594 128.377 1.801 128.377 
c 1.004 128.377 0.359 129.026 0.359 129.819 c h
0.359 129.819 m f
0.72 w
q 1 0 0 1 0 166.467072 cm
0.359 -36.648 m 0.359 -35.852 1.004 -35.207 1.801 -35.207 c 2.594 -35.207
 3.238 -35.852 3.238 -36.648 c 3.238 -37.441 2.594 -38.09 1.801 -38.09 c
 1.004 -38.09 0.359 -37.441 0.359 -36.648 c h
0.359 -36.648 m S Q
0.432 w
q 1 0 0 1 0 166.467072 cm
16.199 -36.648 m 1.801 -36.648 l S Q
0.359 122.619 m 0.359 123.412 1.004 124.061 1.801 124.061 c 2.594 124.061
 3.238 123.412 3.238 122.619 c 3.238 121.823 2.594 121.178 1.801 121.178
 c 1.004 121.178 0.359 121.823 0.359 122.619 c h
0.359 122.619 m f
0.72 w
q 1 0 0 1 0 166.467072 cm
0.359 -43.848 m 0.359 -43.055 1.004 -42.406 1.801 -42.406 c 2.594 -42.406
 3.238 -43.055 3.238 -43.848 c 3.238 -44.645 2.594 -45.289 1.801 -45.289
 c 1.004 -45.289 0.359 -44.645 0.359 -43.848 c h
0.359 -43.848 m S Q
0.432 w
q 1 0 0 1 0 166.467072 cm
1.801 -43.848 m 16.199 -43.848 l S Q
0.359 115.42 m 0.359 116.213 1.004 116.858 1.801 116.858 c 2.594 116.858
 3.238 116.213 3.238 115.42 c 3.238 114.623 2.594 113.979 1.801 113.979 
c 1.004 113.979 0.359 114.623 0.359 115.42 c h
0.359 115.42 m f
0.72 w
q 1 0 0 1 0 166.467072 cm
0.359 -51.047 m 0.359 -50.254 1.004 -49.609 1.801 -49.609 c 2.594 -49.609
 3.238 -50.254 3.238 -51.047 c 3.238 -51.844 2.594 -52.488 1.801 -52.488
 c 1.004 -52.488 0.359 -51.844 0.359 -51.047 c h
0.359 -51.047 m S Q
0.432 w
q 1 0 0 1 0 166.467072 cm
1.801 -51.047 m 16.199 -51.047 l S Q
0.359 108.221 m 0.359 109.014 1.004 109.658 1.801 109.658 c 2.594 109.658
 3.238 109.014 3.238 108.221 c 3.238 107.424 2.594 106.78 1.801 106.78 c
 1.004 106.78 0.359 107.424 0.359 108.221 c h
0.359 108.221 m f
0.72 w
q 1 0 0 1 0 166.467072 cm
0.359 -58.246 m 0.359 -57.453 1.004 -56.809 1.801 -56.809 c 2.594 -56.809
 3.238 -57.453 3.238 -58.246 c 3.238 -59.043 2.594 -59.688 1.801 -59.688
 c 1.004 -59.688 0.359 -59.043 0.359 -58.246 c h
0.359 -58.246 m S Q
0.432 w
q 1 0 0 1 0 166.467072 cm
1.801 -58.246 m 16.199 -58.246 l S Q
0.359 101.018 m 0.359 101.815 1.004 102.459 1.801 102.459 c 2.594 102.459
 3.238 101.815 3.238 101.018 c 3.238 100.225 2.594 99.58 1.801 99.58 c 1.004
 99.58 0.359 100.225 0.359 101.018 c h
0.359 101.018 m f
0.72 w
q 1 0 0 1 0 166.467072 cm
0.359 -65.449 m 0.359 -64.652 1.004 -64.008 1.801 -64.008 c 2.594 -64.008
 3.238 -64.652 3.238 -65.449 c 3.238 -66.242 2.594 -66.887 1.801 -66.887
 c 1.004 -66.887 0.359 -66.242 0.359 -65.449 c h
0.359 -65.449 m S Q
0.432 w
q 1 0 0 1 0 166.467072 cm
1.801 -65.449 m 16.199 -65.449 l S Q
0.359 93.819 m 0.359 94.616 1.004 95.26 1.801 95.26 c 2.594 95.26 3.238
 94.616 3.238 93.819 c 3.238 93.026 2.594 92.377 1.801 92.377 c 1.004 92.377
 0.359 93.026 0.359 93.819 c h
0.359 93.819 m f
0.72 w
q 1 0 0 1 0 166.467072 cm
0.359 -72.648 m 0.359 -71.852 1.004 -71.207 1.801 -71.207 c 2.594 -71.207
 3.238 -71.852 3.238 -72.648 c 3.238 -73.441 2.594 -74.09 1.801 -74.09 c
 1.004 -74.09 0.359 -73.441 0.359 -72.648 c h
0.359 -72.648 m S Q
0.432 w
q 1 0 0 1 0 166.467072 cm
1.801 -72.648 m 16.199 -72.648 l S Q
q 1 0 0 1 0 166.467072 cm
1.801 -79.848 m 16.199 -79.848 l S Q
q 1 0 0 1 0 166.467072 cm
1.801 -29.449 m 1.801 -166.246 l S Q
q 1 0 0 1 0 166.467072 cm
16.199 -29.449 m 1.801 -29.449 l S Q
q 1 0 0 1 0 166.467072 cm
37.801 -79.848 m 41.398 -79.848 l S Q
q 1 0 0 1 0 166.467072 cm
37.801 -72.648 m 41.398 -72.648 l S Q
q 1 0 0 1 0 166.467072 cm
37.801 -65.449 m 41.398 -65.449 l S Q
q 1 0 0 1 0 166.467072 cm
37.801 -58.246 m 41.398 -58.246 l S Q
q 1 0 0 1 0 166.467072 cm
37.801 -51.047 m 41.398 -51.047 l S Q
q 1 0 0 1 0 166.467072 cm
37.801 -43.848 m 41.398 -43.848 l S Q
q 1 0 0 1 0 166.467072 cm
37.801 -36.648 m 41.398 -36.648 l S Q
q 1 0 0 1 0 166.467072 cm
37.801 -29.449 m 41.398 -29.449 l S Q
Q Q
showpage
%%Trailer
end restore
%%EOF
